02351      Abington 
02018      Accord 
02043      Accord 
01718      Acton 
01719      Acton 
01720      Acton 
02743      Acushnet 
02745      Acushnet 
01220      Adams 
01001      Agawam 
01230      Alford 
01266      Alford 
01201      Allendale 
01653      Allmerica 
02134      Allston 
01913      Amesbury 
01002      Amherst 
01003      Amherst 
01004      Amherst 
01059      Amherst 
01810      Andover 
01812      Andover 
01899      Andover 
05501      Andover 
05544      Andover 
02535      Aquinnah 
02474      Arlington 
02475      Arlington 
02476      Arlington 
02475      Arlington Heights 
01430      Ashburnham 
01431      Ashby 
01330      Ashfield 
01721      Ashland 
01222      Ashley Falls 
02339      Assinippi 
02702      Assonet 
01331      Athol 
01368      Athol 
02703      Attleboro 
02763      Attleboro Falls 
01501      Auburn 
02466      Auburndale 
02322      Avon 
01432      Ayer 
01434      Ayer 
02457      Babson Park 
01436      Baldwinville 
01370      Baptist Corner 
02630      Barnstable 
02634      Barnstable 
01005      Barre 
02664      Bass River 
01062      Bay State Village 
02151      Beachmont 
01223      Becket 
01223      Becket Corners 
01730      Bedford 
01731      Bedford 
01007      Belchertown 
02019      Bellingham 
02478      Belmont 
02479      Belmont 
02779      Berkley 
01224      Berkshire 
01230      Berkshire Heights 
01503      Berlin 
01337      Bernardston 
01915      Beverly 
01915      Beverly Farms 
01029      Big Pond 
01821      Billerica 
01822      Billerica 
01862      Billerica 
01504      Blackstone 
01008      Blandford 
01364      Blissville 
01740      Bolton 
01009      Bondsville 
02108      Boston
02109      Boston
02110      Boston
02111      Boston
02112      Boston
02113      Boston
02114      Boston
02115      Boston
02116      Boston
02117      Boston
02118      Boston
02119      Boston
02120      Boston
02121      Boston
02122      Boston
02123      Boston
02124      Boston
02125      Boston
02126      Boston
02127      Boston
02128      Boston
02129      Boston
02130      Boston
02131      Boston
02132      Boston
02133      Boston
02134      Boston
02135      Boston
02136      Boston
02137      Boston
02163      Boston
02196      Boston
02199      Boston
02201      Boston
02203      Boston
02204      Boston
02205      Boston
02206      Boston
02210      Boston
02211      Boston
02212      Boston
02215      Boston
02217      Boston
02222      Boston
02228      Boston
02241      Boston
02266      Boston
02283      Boston
02284      Boston
02293      Boston
02295      Boston
02297      Boston
02298      Boston
02532      Bourne 
02559      Bourne 
01719      Boxboro 
01719      Boxborough 
01921      Boxford 
01505      Boylston 
01835      Bradford 
02184      Braintree 
02185      Braintree 
02184      Braintree Highlands 
02184      Braintree Hld 
02185      Braintree Phantom 
02020      Brant Rock 
02631      Brewster 
02324      Bridgewater
02325      Bridgewater
02135      Brighton
01107      Brightwood
01010      Brimfield
02301      Brockton
02302      Brockton
02303      Brockton
02304      Brockton
02305      Brockton
01506      Brookfield
02445      Brookline
02446      Brookline
02447      Brookline
02467      Brookline
02447      Brookline Village
02327      Bryantville
01338      Buckland
01803      Burlington
01805      Burlington
02532      Buzzards Bay
02542      Buzzards Bay
01922      Byfield
02138      Cambridge
02139      Cambridge
02140      Cambridge
02141      Cambridge
02142      Cambridge
02163      Cambridge
02238      Cambridge
02139      Cambridgeport
02021      Canton
01741      Carlisle
02330      Carver
02355      Carver
02366      Carver
02534      Cataumet
02360      Cedarville
02632      Centerville
02634      Centerville
02636      Centerville
02783      Chadwicks
02539      Chappaquiddick Island
01339      Charlemont
01343      Charlemont
01346      Charlemont
02129      Charlestown
01507      Charlton
01508      Charlton City
01509      Charlton Depot
01509      Charlton Dept
01509      Charlton Depot
02712      Chartley
02633      Chatham
01824      Chelmsford
02150      Chelsea
02493      Cherry Brook
01611      Cherry Valley
01225      Cheshire
01011      Chester
01012      Chesterfield
02467      Chestnut Hill
01013      Chicopee
01014      Chicopee
01020      Chicopee
01021      Chicopee
01022      Chicopee
02535      Chilmark
02552      Chilmark
01247      Clarksburg
01510      Clinton
01778      Cochituate
02025      Cohasset
01253      Cold Spring
01340      Colrain
01742      Concord
01341      Conway
02635      Cotuit
01050      Crescent Mills
02637      Cummaquid
01026      Cummington
01002      Cushman
02713      Cuttyhunk
01226      Dalton
01227      Dalton
01923      Danvers
02714      Dartmouth
02747      Dartmouth
02748      Dartmouth
02026      Dedham
02027      Dedham
01342      Deerfield
02638      Dennis
02639      Dennis Port
02639      Dennisport
01432      Devens
01434      Devens
02715      Dighton
02121      Dorchester
02122      Dorchester
02124      Dorchester
02125      Dorchester
02124      Dorchester Center
02124      Dorchester Center
01516      Douglas
02030      Dover
01826      Dracut
01343      Drury
01571      Dudley
01570      Dudley Hill
01827      Dunstable
02331      Duxbury
02332      Duxbury
02536      East Falmouth
01364      Eagleville
02474      East Arlington
01504      East Blackstone
02128      East Boston
02228      East Boston
02184      East Braintree
02333      East Bridgewater
02337      East Bridgewater
02333      East Bridgewtr
01010      East Brimfield
01515      East Brookfield
02141      East Cambridge
02355      East Carver
01370      East Charlemont
01342      East Deerfield
02641      East Dennis
01516      East Douglas
02536      East Falmouth
02717      East Freetown
01027      East Hampton
02645      East Harwich
01054      East Leverett
01028      East Longmeadow
01116      East Longmeadow
01904      East Lynn
02031      East Mansfield
01527      East Millbury
02186      East Milton
02643      East Orleans
01029      East Otis
02359      East Pembroke
01463      East Pepperell
01517      East Princeton
02537      East Sandwich
02143      East Somerville
02718      East Taunton
01438      East Templeton
02032      East Walpole
02538      East Wareham
02472      East Watertown
02189      East Weymouth
01270      East Windsor
02642      Eastham
01027      Easthampton
02334      Easton
02356      Easton
02357      Easton
02375      Easton
02539      Edgartown
01545      Edgemere
01230      Egremont
02337      Elmwood
01344      Erving
01929      Essex
02149      Everett

02719      Fairhaven
02720      Fall River
02721      Fall River
02722      Fall River
02723      Fall River
02724      Fall River
02725      Fall River
02726      Fall River
02540      Falmouth
02541      Falmouth
02543      Falmouth
01344      Farley
01745      Fayville
01030      Feeding Hills
01518      Fiskdale
01521      Fiskdale
01420      Fitchburg
02241      Fleet Bank Boston
01062      Florence
01247      Florida
02644      Forestdale
01886      Forge Village
01432      Fort Devens
02035      Foxboro
02035      Foxborough
01701      Framingham
01702      Framingham
01703      Framingham
01704      Framingham
01705      Framingham
01701      Framingham Center
01701      Framingham So
02038      Franklin
02702      Freetown
01440      Gardner
01441      Gardner
02535      Gay Head
01833      Georgetown
01031      Gilbertville
01354      Gill
01229      Glendale
01550      Globe Village
01930      Gloucester
01931      Gloucester
01032      Goshen
02713      Gosnold
01519      Grafton
01033      Granby
01034      Granville
01034      Granville Center
01230      Great Barrington
02041      Green Harbor
02040      Greenbush
01606      Greendale
01301      Greenfield
01302      Greenfield
01450      Groton
01470      Groton
01471      Groton
02121      Grove Hall
01834      Groveland
01230      Great Barrington
01035      Hadley
02338      Halifax
01521      Halland
01040      Halyoke
01041      Halyoke
01936      Hamilton
01982      Hamilton
01036      Hampden
01036      Hampton
01237      Hancock
02339      Hanover
02340      Hanover
01731      Hanscom AFB
02341      Hanson
02350      Hanson
02645      Hardwich
01037      Hardwick
01230      Hartsville
01451      Harvard
02238      Harvard Sq
02238      Harvard Square
02645      Harwich
02646      Harwich Port
02646      Harwichport
01519      Hassanamisco Indian Reservat
02493      Hastings
02536      Hatchville
01038      Hatfield
01937      Hathorne
01830      Haverhill
01831      Haverhill
01832      Haverhill
01833      Haverhill
01835      Haverhill
01339      Hawley
01039      Haydenville
01346      Heath
02018      Hingham
02043      Hingham
02044      Hingham
01235      Hinsdale
01050      Hntgtn
02343      Holbrook
01520      Holden
01521      Holland
01746      Holliston
01040      Holyoke
01041      Holyoke
01747      Hopedale
01748      Hopkinton
02790      Horseneck Beach
02169      Houghs Neck
01236      Housatonic
01452      Hubbardston
01749      Hudson
02045      Hull
02047      Humarock
01050      Huntington
02601      Hyannis
02647      Hyannis Port
02126      Hyde Park
02136      Hyde Park
02137      Hyde Park
01151      Indian Orchard
01151      Indian Orchard
02139      Inman Square
01266      Interlaken
01938      Ipswich
02090      Islington
02130      Jamaica Plain
01522      Jefferson
01824      Kates Corner
02493      Kendal Green
02142      Kendall Square
02215      Kenmore
02364      Kingston
01050      Knightville

01364      Lake Mattawa
01347      Lake Pleasant
02347      Lakeville
02348      Lakeville
02348      Lakeville Phantom
01562      Lambs Grove
01523      Lancaster
01224      Lanesboro
01237      Lanesboro
01237      Lanesborough
01840      Lawrence
01841      Lawrence
01842      Lawrence
01843      Lawrence
01238      Lee
01264      Lee
01053      Leeds
01524      Leicester
01240      Lenox
01242      Lenox Dale
01453      Leominster
01054      Leverett
02420      Lexington
02421      Lexington
01301      Leyden
01337      Leyden
01773      Lincoln
01773      Lincoln Center
01525      Linwood
01032      Lithia
01460      Littleton
01106      Longmeadow
01116      Longmeadow
01027      Loudville
01850      Lowell
01851      Lowell
01852      Lowell
01853      Lowell
01854      Lowell
01056      Ludlow
01462      Lunenburg
01901      Lynn
01902      Lynn
01903      Lynn
01904      Lynn
01905      Lynn
01910      Lynn
01940      Lynnfield
01930      Magnolia
02148      Malden
01526      Manchaug
01944      Manchester
01944      Manchester by the Sea
02345      Manomet
02031      Mansfield
02048      Mansfield
01945      Marblehead
02171      Marina Bay
01752      Marlboro
01752      Marlborough
02020      Marshfield
02041      Marshfield
02047      Marshfield
02050      Marshfield
02051      Marshfield
02059      Marshfield
02065      Marshfield
02051      Marshfield Hills
02051      Marshfield Hills
02648      Marstons Mills
02648      Marstons Mills
02649      Mashpee
02126      Mattapan
02739      Mattapoisett
01754      Maynard
02052      Medfield
02153      Medford
02155      Medford
02156      Medford
02053      Medway
02176      Melrose
01756      Mendon
02552      Menemsha
01860      Merrimac
01844      Methuen
01945      Mhead
02344      Middleboro
02346      Middleboro
02347      Middleboro
02348      Middleboro
02349      Middleboro
02344      Middleborough
02346      Middleborough
02348      Middleborough
02349      Middleborough
01243      Middlefield
01949      Middleton
01757      Milford
01244      Mill River
01527      Millbury
01586      Millbury
01349      Millers Falls
01504      Millerville
02054      Millis
01529      Millville
02186      Milton
02187      Milton Village
02055      Minot
02120      Mission Hill
02350      Monponsett
01350      Monroe
01350      Monroe Bridge
01057      Monson
01351      Montague
01245      Monterey
01050      Montgomery
01085      Montgomery
02553      Monument Beach
02553      Monument Beach
01505      Morningdale
01354      Mount Hermon
01027      Mount Tom
01258      Mount Washington
01886      Nabnasset
01908      Nahant
02045      Nantasket Beach
02554      Nantucket
02564      Nantucket
02584      Nantucket
01760      Natick
02492      Needham
02494      Needham
02494      Needham Heights
02494      Needham Hgts
02492      Needham Jct
01237      New Ashford
02740      New Bedford
02741      New Bedford
02742      New Bedford
02743      New Bedford
02744      New Bedford
02745      New Bedford
02746      New Bedford
01531      New Braintree
01230      New Marlboro
01230      New Marlborou
01230      New Marlborough
01355      New Salem
01364      New Salem
02649      New Seabury
02456      New Town
01922      Newbury
01951      Newbury
01950      Newburyport
01951      Newburyport
02456      Newton
02458      Newton
02459      Newton
02460      Newton
02461      Newton
02462      Newton
02464      Newton
02465      Newton
02466      Newton
02467      Newton
02468      Newton
02495      Newton
02459      Newton Center
02459      Newton Centre
02459      Newton Center
02461      Newton Highlands
02461      Newton Hlds
02462      Newton Lower Falls
02462      Newton Lower Falls
02464      Newton Upper Falls
02464      Newton Upper Falls
02458      Newtonville
02460      Newtonville
02462      Newtonville
01247      North Adams
02760      North Attleboro
02356      North Easton
01252      North Egremont
01360      North Field
01536      North Grafton
01066      North Hatfield
01760      North Natick
02171      North Quincy
02495      Nonantum
02748      Nonquitt
02056      Norfolk
02171      Norfolk Downs
01247      North Adams
01059      North Amherst
01845      North Andover
02760      North Attleboro
02761      North Attleboro
02762      North Attleboro
02763      North Attleboro
01862      North Billerica
01535      North Brookfield
02140      North Cambridge
02355      North Carver
02650      North Chatham
01863      North Chelmsford
01050      North Chester
02747      North Dartmouth
02764      North Dighton
02651      North Eastham
02356      North Easton
02357      North Easton
01230      North Egremont
01252      North Egremont
02556      North Falmouth
02565      North Falmouth
01360      North Field
01536      North Grafton
01035      North Hadley
01060      North Hampton
01061      North Hampton
01062      North Hampton
01063      North Hampton
01066      North Hatfield
01523      North Lancaster
01054      North Leverett
02059      North Marshfield
01760      North Natick
01364      North Orange
01253      North Otis
01537      North Oxford
02358      North Pembroke
02171      North Quincy
01864      North Reading
01889      North Reading
02060      North Scituate
01776      North Sudbury
02568      North Tisbury
02652      North Truro
01538      North Uxbridge
02451      North Waltham
02452      North Waltham
02455      North Waltham
02191      North Weymouth
01060      Northampton
01061      Northampton
01062      Northampton
01063      Northampton
01532      Northboro
01532      Northborough
01534      Northbridge
01360      Northfield
01354      Northfield Mount Hermon
01354      Northfield Mount Hermon
02712      Norton
02766      Norton
02018      Norwell
02061      Norwell
02062      Norwood
01865      Nutting Lake
01865      Nuttings Lake
02557      Oak Bluffs
01583      Oakdale
01068      Oakham
02065      Ocean Bluff
02349      Ocean Spray
01031      Old Furnace
02558      Onset
01355      Orange
01364      Orange
01378      Orange
02653      Orleans
02655      Osterville
01253      Otis
02542      Otis AFB
02542      Otis Air National Guard
02542      Otis Air National Guard
02542      Otis Air National Guard Base
01436      Otter River
01540      Oxford
02748      Padanaram The Packet
01069      Palmer
01612      Paxton
01960      Peabody
01961      Peabody
01002      Pelham
02327      Pembroke
02358      Pembroke
02359      Pembroke
01463      Pepperell
01235      Peru
01366      Petersham
01331      Phillipston
01966      Pigeon Cove
01866      Pinehurst
01460      Pingryville
01201      Pittsfield
01202      Pittsfield
01203      Pittsfield
01070      Plainfield
02762      Plainville
01950      Plum Island
01951      Plum Island
02345      Plymouth
02360      Plymouth
02361      Plymouth
02362      Plymouth
02381      Plymouth
02367      Plympton
02559      Pocasset
02140      Porter Square
01965      Prides Crossing
01965      Prides Crssng
01541      Princeton
02657      Provincetown
02169      Quincy
02170      Quincy
02171      Quincy
02269      Quincy
02169      Quincy Center
02368      Randolph
02767      Raynham
02768      Raynham
02768      Raynham Center
01867      Reading
02136      Readville
02137      Readville
02769      Rehoboth
02151      Revere
02151      Revere Beach
01508      Richardson Corners
01254      Richmond
01230      Risingdale
02458      Riverside
01542      Rochdale
02770      Rochester
01534      Rockdale
02370      Rockland
01966      Rockport
02364      Rocky Nook
02131      Roslindale
01367      Rowe
01969      Rowley
02118      Roxbury
02119      Roxbury
02120      Roxbury
02120      Roxbury Crossing
01331      Royalston
01368      Royalston
01071      Russell
01543      Rutland
02561      Sagamore
02562      Sagamore Beach
02562      Sagamore Beach
01970      Salem
01971      Salem
01952      Salisbury
01952      Salisbury Beach
01952      Salisbury Beach
01550      Sandersdale
01255      Sandisfield
02563      Sandwich
02644      Sandwich
01906      Saugus
01560      Saundersville
01256      Savoy
01701      Saxonville
02040      Scituate
02055      Scituate
02060      Scituate
02066      Scituate
02066      Scituate Center
02066      Scituate Harbor
02564      Sconset
02771      Seekonk
02067      Sharon
01340      Shattuckville
01257      Sheffield
01370      Shelburne
01370      Shelburne Falls
02070      Sheldonville
01770      Sherborn
01223      Sherwood Forest
01464      Shirley
01464      Shirley Center
01545      Shrewsbury
01546      Shrewsbury
01072      Shutesbury
02564      Siasconset
02565      Silver Beach
02493      Silver Hill
02364      Silver Lake
01230      Simons Rock
01063      Smith College
01373      South Deerfield
02375      South Easton
01258      South Egremont
01075      South Hadley
01561      South Lancaster
01760      South Natick
02664      South Yarmouth
02163      Soldiers Field
02725      Somerset
02726      Somerset
02143      Somerville
02144      Somerville
02145      Somerville
01002      South Amherst
01430      South Ashburnham
01330      South Ashfield
02703      South Attleboro
01074      South Barre
02127      South Boston
02366      South Carver
02659      South Chatham
01824      South Chelmsford
01096      South Chesterfield
02748      South Dartmouth
01373      South Deerfield
02660      South Dennis
02375      South Easton
01258      South Egremont
01560      South Grafton
01075      South Hadley
01075      South Hadley Falls
01982      South Hamilton
02661      South Harwich
01561      South Lancaster
01843      South Lawrence
01260      South Lee
01940      South Lynnfield
02649      South Mashpee
01760      South Natick
02662      South Orleans
02169      South Quincy
01368      South Royalston
01255      South Sandisfield
02071      South Walpole
02453      South Waltham
02663      South Wellfleet
02190      South Weymouth
01050      South Worthington
02664      South Yarmouth
02673      South Yarmouth
01073      Southampton
01745      Southboro
01772      Southboro
01745      Southborough
01772      Southborough
01550      Southbridge
01259      Southfield
01077      Southwick
01562      Spencer
01101      Springfield
01102      Springfield
01103      Springfield
01104      Springfield
01105      Springfield
01107      Springfield
01108      Springfield
01109      Springfield
01118      Springfield
01119      Springfield
01128      Springfield
01129      Springfield
01138      Springfield
01139      Springfield
01151      Springfield
01199      Springfield
01106      Springfield
01101      Springfield
01102      Springfield
01103      Springfield
01104      Springfield
01105      Springfield
01106      Springfield
01107      Springfield
01108      Springfield
01109      Springfield
01111      Springfield
01115      Springfield
01118      Springfield
01119      Springfield
01128      Springfield
01129      Springfield
01138      Springfield
01139      Springfield
01144      Springfield
01151      Springfield
01152      Springfield
01199      Springfield
02171      Squantum
01564      Sterling
01564      Sterling Junction
01467      Still River
01262      Stockbridge
01263      Stockbridge
02180      Stoneham
01344      Stoneville
02493      Stony Brook
02072      Stoughton
01775      Stow
01518      Sturbridge
01566      Sturbridge
01776      Sudbury
01375      Sunderland
01590      Sutton
01907      Swampscott
02777      Swansea
02348      Talbots
02718      Taunton
02780      Taunton
02783      Taunton
02536      Teaticket
01468      Templeton
01876      Tewksbury
01079      Thorndike
01080      Three Rivers
02568      Tisbury
02573      Tisbury
02575      Tisbury
01034      Tolland
01983      Topsfield
01469      Townsend
01474      Townsend
02666      Truro
01349      Turners Falls
01376      Turners Falls
01441      Tyco
01879      Tyngsboro
01879      Tyngsborough
01264      Tyringham
02125      Uphams Corner
01568      Upton
01569      Uxbridge
01230      Van Deusenville
01654      Verizon
02568      Vineyard Haven
02573      Vineyard Haven
02568      Vineyard Haven
02573      Vineyard Haven
01718      Village of Nagog Woods
02468      Waban
01880      Wakefield
01081      Wales
02032      Walpole
02071      Walpole
02081      Walpole
02451      Waltham
02452      Waltham
02453      Waltham
02454      Waltham
02455      Waltham
02536      Waquoit
01835      Ward Hill
01082      Ware
02571      Wareham
01083      Warren
01364      Warwick
01378      Warwick
01223      Washington
02471      Watertown
02472      Watertown
02477      Watertown
02479      Waverley
01778      Wayland
02340      Wearguard
01570      Webster
01603      Webster Square
02457      Wellesley
02481      Wellesley
02482      Wellesley
02481      Wellesley Farms
02481      Wellesley Hills
02481      Wellesley Hills
02667      Wellfleet
01379      Wendell
01380      Wendell Depot
01984      Wenham
01720      West Acton
02668      West Barnstable
02668      West Barnstble
01238      West Becket
01885      West Boxford
01583      West Boylston
02379      West Bridgewater
01585      West Brookfield
02669      West Chatham
01084      West Chesterfield
01084      West Chesterfld
02573      West Chop
01742      West Concord
01026      West Cummington
01342      West Deerfield
02670      West Dennis
02574      West Falmouth
01034      West Granville
01472      West Groton
02339      West Hanover
02671      West Harwich
01038      West Hatfield
01088      West Hatfield
01339      West Hawley
02672      West Hyannisport
02672      West Hyannisprt
01905      West Lynn
02155      West Medford
02156      West Medford
01586      West Millbury
01985      West Newbury
02465      West Newton
01245      West Otis
01960      West Peabody
02169      West Quincy
02132      West Roxbury
01602      West Side
02144      West Somerville
01089      West Springfield
01090      West Springfield
01089      West Springfld
01266      West Stockbridge
01266      West Stockbridge Center
02568      West Tisbury
02575      West Tisbury
01474      West Townsend
01568      West Upton
02576      West Wareham
01092      West Warren
01039      West Whately
02673      West Yarmouth
01580      Westboro
01581      Westboro
01582      Westboro
01580      Westborough
01581      Westborough
01582      Westborough
01583      Westboylston
01585      Westbrookfield
01085      Westfield
01086      Westfield
01886      Westford
01027      Westhampton
01441      Westminster
01473      Westminster
02493      Weston
01022      Westover AFB
02790      Westport
02791      Westport Point
02090      Westwood
02188      Weymouth
02189      Weymouth
02190      Weymouth
02191      Weymouth
02188      Weymouth Landing
02190      Weymouth NAS
01093      Whately
01373      Whately
01094      Wheelwright
02381      White Horse Beach
01588      Whitinsville
02382      Whitman
02381      White Horse Beach
01095      Wilbraham
01590      Wilkinsonvile
01590      Wilkinsonville
01096      Williamsburg
01267      Williamstn
01267      Williamstown
01013      Willimansett
01887      Wilmington
01477      Winchdon Springs
01475      Winchendon
01477      Winchendon Springs
01890      Winchester
01270      Windsor
02145      Winter Hill
02152      Winthrop
01267      Wmstown
01801      Woburn
01807      Woburn
01813      Woburn
01815      Woburn
01888      Woburn
02170      Wollaston
02543      Woods Hole
02543      Woodshole
01784      Woodville
01601      Worcester
01602      Worcester
01603      Worcester
01604      Worcester
01605      Worcester
01606      Worcester
01607      Worcester
01608      Worcester
01609      Worcester
01610      Worcester
01612      Worcester
01613      Worcester
01614      Worcester
01615      Worcester
01653      Worcester
01654      Worcester
01655      Worcester
01097      Woronoco
01098      Worthington
02070      Wrentham
02093      Wrentham
02664      Yarmouth
02673      Yarmouth
02675      Yarmouth
02675      Yarmouth Port
02675      Yarmouthport
01367      Zoar