lab_count,mapping,native_code,native_name,procedure_name,most_recent_lab_date,oldest_lab_date,test_name,threshold,output_code,snomed_pos,snomed_neg,snomed_ind,top_result_strings
4,alt,LAB132--4933,ALANINE AMINOTRANSFERASE (SGPT) (U/L) IN SER/PLAS,ALT,2023-05-27,2023-01-03,alt,55,,,,,"{18,19,33}"
1120,alt,LAB132--948,ALT,ALT,2024-03-06,2022-11-30,alt,55,,,,,"{11,12,13,14,15}"
67,alt,LAB17--4933,ALANINE AMINOTRANSFERASE (SGPT) (U/L) IN SER/PLAS,COMPREHENSIVE METABOLIC PANEL,2023-09-23,2022-12-01,alt,55,,,,,"{23,24,26,27,33,36,49}"
15164,alt,LAB17--948,ALT,COMPREHENSIVE METABOLIC PANEL,2024-03-06,2022-09-27,alt,55,,,,,"{12,13,14,15,16}"
2,alt,LAB20--4933,ALANINE AMINOTRANSFERASE (SGPT) (U/L) IN SER/PLAS,HEPATIC FUNCTION PANEL,2023-02-15,2023-01-27,alt,55,,,,,"{22,95}"
748,alt,LAB20--948,ALT,HEPATIC FUNCTION PANEL,2024-03-06,2022-12-01,alt,55,,,,,"{11,12,13,14,18,22}"
43,alt,LAB4114--948,ALT,"COMPREHENSIVE METABOLIC PANEL, PLASMA",2023-08-29,2022-12-06,alt,55,,,,,"{12,13,14,15,17,20,21,26,31}"
6,alt,LAB4257--948,ALT,"HEPATIC FUNCTION PANEL, PLASMA",2024-03-04,2023-01-17,alt,55,,,,,"{13,20,28,41,52,87}"
48,alt,LAB4339--2941,ALT,"LIVER FIBROSIS, FIBROTEST ACTITEST PANEL",2023-12-08,2022-11-30,alt,55,,,,,"{12,139,21,23,29,33,61}"
2,alt,LAB4339--6582,ALT,"LIVER FIBROSIS, FIBROTEST ACTITEST PANEL",2023-06-29,2023-04-24,alt,55,,,,,"{26,68}"
1,alt,LAB4340--948,ALT,"LIVER FIBROSIS, HEPATIC PANEL W/FIB 4 INDEX",2024-02-08,2024-02-08,alt,55,,,,,{66}
2,alt,LAB70115--948,ALT,ADD ON COMPREHENSIVE METABOLIC PANEL (NON ORDERABLE),2023-08-10,2023-03-24,alt,55,,,,,"{10,24}"
12,anaplasmosis_hge_igg_64,LAB36942--1219,A. PHAGOCYTOPHILUM AB (IGG),"TICK-BORNE DISEASE, ANTIBODY PANEL",2024-02-14,2023-05-15,anaplasmosis_hge_igg_64,,,,,,"{1:128,<1:64}"
12,anaplasmosis_hge_igm_20,LAB36942--1220,A. PHAGOCYTOPHILUM AB (IGM),"TICK-BORNE DISEASE, ANTIBODY PANEL",2024-02-14,2023-05-15,anaplasmosis_hge_igm_20,,,,,,{<1:20}
3,anaplasmosis_pcr,LAB4523--1175,"ANAPLASMA PHAGOCYTOPHILUM DNA, QL REAL TIME PCR",TICK BORNE DISEASE BY PCR,2023-07-07,2023-05-30,anaplasmosis_pcr,,,,,,"{""NOT DETECTED""}"
725,ast,LAB131--947,AST,AST,2024-03-06,2022-12-02,ast,40,,,,,"{16,17,18,20,21}"
67,ast,LAB17--4938,ASPARTATE AMINOTRANSFERASE (SGOT) (U/L) IN SER/PLAS,COMPREHENSIVE METABOLIC PANEL,2023-09-23,2022-12-01,ast,40,,,,,"{13,14,15,18,21,22,23,31}"
15157,ast,LAB17--947,AST,COMPREHENSIVE METABOLIC PANEL,2024-03-06,2022-09-27,ast,40,,,,,"{15,16,17,18,19}"
2,ast,LAB20--4938,ASPARTATE AMINOTRANSFERASE (SGOT) (U/L) IN SER/PLAS,HEPATIC FUNCTION PANEL,2023-02-15,2023-01-27,ast,40,,,,,{35}
748,ast,LAB20--947,AST,HEPATIC FUNCTION PANEL,2024-03-06,2022-12-01,ast,40,,,,,"{15,16,17,19,20}"
43,ast,LAB4114--947,AST,"COMPREHENSIVE METABOLIC PANEL, PLASMA",2023-08-29,2022-12-06,ast,40,,,,,"{12,13,16,17,18,21,23,28}"
1,ast,LAB4115--947,AST,"COMPREHENSIVE METABOLIC PNL W/O CO2, ALT, EGFR",2023-02-22,2023-02-22,ast,40,,,,,{37}
6,ast,LAB4257--947,AST,"HEPATIC FUNCTION PANEL, PLASMA",2024-03-04,2023-01-17,ast,40,,,,,"{10,14,21,29,49,60}"
1,ast,LAB4340--947,AST,"LIVER FIBROSIS, HEPATIC PANEL W/FIB 4 INDEX",2024-02-08,2024-02-08,ast,40,,,,,{50}
2,ast,LAB70115--947,AST,ADD ON COMPREHENSIVE METABOLIC PANEL (NON ORDERABLE),2023-08-10,2023-03-24,ast,40,,,,,"{15,19}"
12,babesiosis_igg_256,LAB36942--20764,"BABESIA DUNCANI (WA1) ANTIBODY (IGG), IFA","TICK-BORNE DISEASE, ANTIBODY PANEL",2024-02-14,2023-05-15,babesiosis_igg_256,,"","","","","{<1:256,1:256}"
12,babesiosis_igg_64,LAB36942--1170,BABESIA MICROTI AB (IGG),"TICK-BORNE DISEASE, ANTIBODY PANEL",2024-02-14,2023-05-15,babesiosis_igg_64,,,,,,{<1:64}
3,babesiosis_microti_pcr,LAB4523--1173,"BABESIA MICROTI DNA, REAL TIME PCR",TICK BORNE DISEASE BY PCR,2023-07-07,2023-05-30,babesiosis_microti_pcr,,,,,,"{""NOT DETECTED""}"
9,bilirubin_direct,LAB168--5297,BILIRUBIN DIRECT (MG/DL) IN SER/PLAS,"BILIRUBIN, TOTAL AND DIRECT",2023-08-12,2023-02-03,bilirubin_direct,,,,,,"{0.2,0.3,0.5,0.6,3.5}"
748,bilirubin_direct,LAB20--14294,"BILIRUBIN, DIRECT",HEPATIC FUNCTION PANEL,2024-03-06,2022-12-01,bilirubin_direct,,,,,,"{0.0,0.1,0.2,0.3,0.4}"
2,bilirubin_direct,LAB20--5297,BILIRUBIN DIRECT (MG/DL) IN SER/PLAS,HEPATIC FUNCTION PANEL,2023-02-15,2023-01-27,bilirubin_direct,,,,,,"{<0.1,0.1}"
41,bilirubin_direct,LAB4058--952,"BILIRUBIN, DIRECT","BILIRUBIN, DIRECT, NEONATAL",2024-02-16,2023-01-13,bilirubin_direct,,,,,,"{0.1,0.2,0.3,0.4,TNP}"
10,bilirubin_direct,LAB4059--14294,"BILIRUBIN, DIRECT","BILIRUBIN, FRACTIONATED",2023-12-17,2023-02-01,bilirubin_direct,,,,,,"{0.1,0.2,0.3,0.4,1.2}"
99,bilirubin_direct,LAB4060--952,"BILIRUBIN, DIRECT","BILIRUBIN, TOTAL AND DIRECT, NEONATAL",2024-03-06,2022-12-02,bilirubin_direct,,,,,,"{0.1,0.2,0.3,0.4,0.5,TNP}"
6,bilirubin_direct,LAB4257--14294,"BILIRUBIN, DIRECT","HEPATIC FUNCTION PANEL, PLASMA",2024-03-04,2023-01-17,bilirubin_direct,,,,,,"{0.0,0.1,0.2,0.3}"
1,bilirubin_direct,LAB4340--14294,"BILIRUBIN, DIRECT","LIVER FIBROSIS, HEPATIC PANEL W/FIB 4 INDEX",2024-02-08,2024-02-08,bilirubin_direct,,,,,,{0.1}
61,bilirubin_direct,LAB52--14294,"BILIRUBIN, DIRECT","BILIRUBIN, DIRECT",2024-02-21,2022-12-06,bilirubin_direct,,,,,,"{0.1,0.2,0.3,0.9,TNP}"
4,bilirubin_direct,LAB52--5297,BILIRUBIN DIRECT (MG/DL) IN SER/PLAS,"BILIRUBIN, DIRECT",2023-08-05,2023-01-19,bilirubin_direct,,,,,,"{0.1,0.3}"
9,bilirubin_indirect,LAB168--4667,BILIRUBIN INDIRECT (MG/DL) IN SER/PLAS,"BILIRUBIN, TOTAL AND DIRECT",2023-08-12,2023-02-03,bilirubin_indirect,,,,,,"{0.6,10.2,12.3,14.1,14.5,17.3,18.0,7.3,9.8}"
746,bilirubin_indirect,LAB20--959,"BILIRUBIN, INDIRECT",HEPATIC FUNCTION PANEL,2024-03-06,2022-12-01,bilirubin_indirect,,,,,,"{0.2,0.3,0.4,0.5,0.6}"
10,bilirubin_indirect,LAB4059--959,"BILIRUBIN, INDIRECT","BILIRUBIN, FRACTIONATED",2023-12-17,2023-02-01,bilirubin_indirect,,,,,,"{0.4,0.7,0.9,1.1,1.3,1.4,1.5,1.6,2.0}"
6,bilirubin_indirect,LAB4257--959,"BILIRUBIN, INDIRECT","HEPATIC FUNCTION PANEL, PLASMA",2024-03-04,2023-01-17,bilirubin_indirect,,,,,,"{0.2,0.3,0.4,0.6,0.7}"
1,bilirubin_indirect,LAB4340--959,"BILIRUBIN, INDIRECT","LIVER FIBROSIS, HEPATIC PANEL W/FIB 4 INDEX",2024-02-08,2024-02-08,bilirubin_indirect,,,,,,{0.3}
15163,bilirubin_total,LAB17--14295,"BILIRUBIN, TOTAL",COMPREHENSIVE METABOLIC PANEL,2024-03-06,2022-09-27,bilirubin_total,,,,,,"{0.3,0.4,0.5,0.6,0.7}"
67,bilirubin_total,LAB17--4957,BILIRUBIN TOTAL (MG/DL) IN SER/PLAS,COMPREHENSIVE METABOLIC PANEL,2023-09-23,2022-12-01,bilirubin_total,,,,,,"{0.2,0.3,0.4,0.5,0.6}"
748,bilirubin_total,LAB20--14295,"BILIRUBIN, TOTAL",HEPATIC FUNCTION PANEL,2024-03-06,2022-12-01,bilirubin_total,,,,,,"{0.3,0.4,0.5,0.6,0.7}"
2,bilirubin_total,LAB20--4957,BILIRUBIN TOTAL (MG/DL) IN SER/PLAS,HEPATIC FUNCTION PANEL,2023-02-15,2023-01-27,bilirubin_total,,,,,,"{0.6,0.7}"
10,bilirubin_total,LAB4059--14295,"BILIRUBIN, TOTAL","BILIRUBIN, FRACTIONATED",2023-12-17,2023-02-01,bilirubin_total,,,,,,"{0.5,1.0,1.3,1.5,1.7,1.8,2.3,2.8}"
43,bilirubin_total,LAB4114--14295,"BILIRUBIN, TOTAL","COMPREHENSIVE METABOLIC PANEL, PLASMA",2023-08-29,2022-12-06,bilirubin_total,,,,,,"{0.3,0.4,0.5,0.6,0.7}"
1,bilirubin_total,LAB4115--14295,"BILIRUBIN, TOTAL","COMPREHENSIVE METABOLIC PNL W/O CO2, ALT, EGFR",2023-02-22,2023-02-22,bilirubin_total,,,,,,{0.5}
6,bilirubin_total,LAB4257--14295,"BILIRUBIN, TOTAL","HEPATIC FUNCTION PANEL, PLASMA",2024-03-04,2023-01-17,bilirubin_total,,,,,,"{0.3,0.4,0.6,0.9}"
48,bilirubin_total,LAB4339--2939,TOTAL BILIRUBIN,"LIVER FIBROSIS, FIBROTEST ACTITEST PANEL",2023-12-08,2022-11-30,bilirubin_total,,,,,,"{0.3,0.4,0.5,0.6,0.7}"
2,bilirubin_total,LAB4339--7288,TOTAL BILIRUBIN,"LIVER FIBROSIS, FIBROTEST ACTITEST PANEL",2023-06-29,2023-04-24,bilirubin_total,,,,,,"{0.4,0.6}"
1,bilirubin_total,LAB4340--14295,"BILIRUBIN, TOTAL","LIVER FIBROSIS, HEPATIC PANEL W/FIB 4 INDEX",2024-02-08,2024-02-08,bilirubin_total,,,,,,{0.4}
6,bilirubin_total,LAB50--14295,"BILIRUBIN, TOTAL","BILIRUBIN, TOTAL",2023-11-15,2022-12-28,bilirubin_total,,,,,,"{0.4,0.5,0.8,1.2}"
2,bilirubin_total,LAB70115--14295,"BILIRUBIN, TOTAL",ADD ON COMPREHENSIVE METABOLIC PANEL (NON ORDERABLE),2023-08-10,2023-03-24,bilirubin_total,,,,,,"{0.3,0.5}"
2,cd4,LAB341--1297,ABSOLUTE CD4+ CELLS,"LYMPHOCYTE SUBSET PANEL 3, T CELLS",2022-12-09,2022-12-05,cd4,,,,,,"{191,404}"
6,cd4,LAB341--4241,ABSOLUTE CD4+ CELLS,"LYMPHOCYTE SUBSET PANEL 3, T CELLS",2023-03-13,2022-12-14,cd4,,,,,,"{1149,459,591,729,805,935}"
833,cd4,LAB342--1297,ABSOLUTE CD4+ CELLS,"LYMPHOCYTE SUBSET PANEL 5, CD4",2024-03-04,2022-11-18,cd4,,,,,,"{478,587,630,649,714,891,913}"
6,cd4,LAB342--4241,ABSOLUTE CD4+ CELLS,"LYMPHOCYTE SUBSET PANEL 5, CD4",2023-08-29,2023-01-20,cd4,,,,,,"{498,528,539,790,791,860}"
34,cd4,LAB343--1297,ABSOLUTE CD4+ CELLS,LYMPHOCYTE SUBSET PANEL 4,2024-03-04,2023-02-27,cd4,,,,,,"{1013,1042,1047,1057,1099,1332,1616,1641,2195,321,331,350,356,366,393,403,431,454,463,492,499,582,592,604,631,684,755,814,82,872,886,936,997}"
7,cd4,LAB4344--1297,ABSOLUTE CD4+ CELLS,"LYMPHOCYTE SUBSET PANEL 1, T CELL AND B CELL",2023-06-08,2022-11-28,cd4,,,,,,"{1038,48,646,649,718,756,880}"
8,cd4 %,LAB341--1296,% CD4,"LYMPHOCYTE SUBSET PANEL 3, T CELLS",2023-03-13,2022-12-05,cd4 %,,,,,,"{12,25,29,30,34,41,45,46}"
843,cd4 %,LAB342--1296,% CD4,"LYMPHOCYTE SUBSET PANEL 5, CD4",2024-03-04,2022-11-18,cd4 %,,,,,,"{29,35,38,40,42}"
34,cd4 %,LAB343--1296,% CD4,LYMPHOCYTE SUBSET PANEL 4,2024-03-04,2023-02-27,cd4 %,,,,,,"{26,29,33,35,36,37,38,40}"
7,cd4 %,LAB4344--1296,% CD4,"LYMPHOCYTE SUBSET PANEL 1, T CELL AND B CELL",2023-06-08,2022-11-28,cd4 %,,,,,,"{13,30,34,39,40,42,52}"
480,chlamydia,LAB13761--20405,CHLAMYDIA VAGINAL SWAB (MA DPH),CHLAMYDIA/GONORRHEA VAGINAL SWAB (MA DPH),2024-03-01,2022-12-01,chlamydia,,,,,,"{Indeterminate,Negative,""None Detected"",Positive,""Specimen unsatisfactory for evaluation""}"
5977,chlamydia,LAB1376--2091,"CHLAMYDIA TRACHOMATIS RNA, TMA, UROGENITAL","CHLAMYDIA/N. GONORRHOEAE RNA, TMA, UROGENITAL",2024-03-06,2022-11-18,chlamydia,,,,,,"{DETECTED,EQUIVOCAL,""NOT DETECTED"",TNP}"
6,chlamydia,LAB1381--1230000020,EXTERNAL CHLAMYDIA SCREEN,CHLAMYDIA SCREEN,2022-12-27,2022-12-06,chlamydia,,,,,,{Negative}
1,chlamydia,LAB15031--14539,"CHLAMYDIA TRACHOMATIS,TMA (ALT TARGET),UROGENITAL","CHLAMYDIA TRACHOMATIS, TMA (ALTERNATE TARGET), UROGENT",2023-06-16,2023-06-16,chlamydia,,,,,,{Detected}
394,chlamydia,LAB40980--40980,CHLAMYDIA RECTAL SWAB (MA DPH),CHLAMYDIA/GONORRHEA RECTAL SWAB (MA DPH),2024-02-29,2022-12-01,chlamydia,,,,,,"{Indeterminate,Negative,""None Detected"",Positive,""Specimen unsatisfactory for evaluation""}"
10,chlamydia,LAB4098--2182,"CHLAMYDIA TRACHOMATIS RNA, TMA, RECTAL","CHLAMYDIA/N. GONORRHOEAE RNA, TMA, RECTAL",2024-02-22,2022-12-02,chlamydia,,,,,,"{""NOT DETECTED"",TNP}"
1156,chlamydia,LAB40991--40991,CHLAMYDIA THROAT SWAB (MA DPH),CHLAMYDIA/GONORRHEA THROAT SWAB (MA DPH),2024-03-01,2022-12-01,chlamydia,,,,,,"{Indeterminate,Negative,""None Detected"",Positive,""Specimen unsatisfactory for evaluation""}"
23,chlamydia,LAB4099--2188,"CHLAMYDIA TRACHOMATIS RNA, TMA, THROAT","CHLAMYDIA/N. GONORRHOEAE RNA, TMA, THROAT",2024-02-28,2022-12-07,chlamydia,,,,,,"{""NOT DETECTED""}"
9,chlamydia,LAB4100--2091,"CHLAMYDIA TRACHOMATIS RNA, TMA, UROGENITAL","CHLAMYDIA/NG RNA,TMA, W/RFL ALT TARGET,UROGEN",2024-02-21,2022-12-12,chlamydia,,,,,,"{""Not Detected""}"
141,chlamydia,LAB4312--2091,"CHLAMYDIA TRACHOMATIS RNA, TMA, UROGENITAL",IMAGE-GUIDED PAP W/AGE BASED SCR PROTOCOLS,2024-03-04,2022-11-28,chlamydia,,,,,,"{DETECTED,""NOT DETECTED""}"
636,chlamydia,LAB4313--2091,"CHLAMYDIA TRACHOMATIS RNA, TMA, UROGENITAL","IMAGE-GUIDED PAP W/AGE BASED SCR,W/CT/NG",2024-03-05,2022-10-04,chlamydia,,,,,,"{DETECTED,""NOT DETECTED""}"
1260,chlamydia,LAB4314--2091,"CHLAMYDIA TRACHOMATIS RNA, TMA, UROGENITAL","IMAGE-GUIDED PAP W/AGE BASED SCR,W/CT/NG/TRICH",2024-03-05,2022-11-22,chlamydia,,,,,,"{DETECTED,""NOT DETECTED""}"
23,chlamydia,LAB4470--2091,"CHLAMYDIA TRACHOMATIS RNA, TMA, UROGENITAL","SURESWAB(R) ADVANCED BV/CT/NG, TMA",2024-03-05,2022-11-30,chlamydia,,,,,,"{DETECTED,""NOT DETECTED"",TNP}"
2755,chlamydia,LAB4472--2091,"CHLAMYDIA TRACHOMATIS RNA, TMA, UROGENITAL","SURESWAB(R) ADVANCED VAGINITIS PLUS, TMA",2024-03-06,2022-11-25,chlamydia,,,,,,"{DETECTED,""NOT DETECTED"",TNP}"
141,chlamydia,LAB4480--2091,"CHLAMYDIA TRACHOMATIS RNA, TMA, UROGENITAL","CHLAMYDIA/N. GONORRHOEAE AND T. VAGINALIS RNA, QUALITATIVE, TMA",2024-03-06,2022-12-20,chlamydia,,,,,,"{DETECTED,""NOT DETECTED"",TNP}"
1,chlamydia,LAB4503--2091,"CHLAMYDIA TRACHOMATIS RNA, TMA, UROGENITAL","THINPREP PAP, HPV MRNA E6/E7 RFX HPV 16,18/45, CHLAMYDIA/N.GONORRHOEAE",2023-05-19,2023-05-19,chlamydia,,,,,,"{""NOT DETECTED""}"
8,chlamydia,LAB4512--2091,"CHLAMYDIA TRACHOMATIS RNA, TMA, UROGENITAL","THINPREP IMAGING PAP AND HPV MRNA E6/E7 REFLEX HPV 16,18/45 WITH CT/NG",2024-03-05,2023-12-12,chlamydia,,,,,,"{DETECTED,""NOT DETECTED""}"
1,chlamydia,LAB50096--3213,"CHLAMYDIA TRACHOMATIS RNA, TMA, UROGENITAL",SEXUALLY-TRANSMITTED INFECTIONS (STIS) CERVICITIS PANEL,2023-05-12,2023-05-12,chlamydia,,,,,,"{""Not Detected""}"
842,chlamydia,LAB60310--20402,CHLAMYDIA - URINE (MA DPH),CHLAMYDIA/GONORRHEA - URINE (MA DPH),2024-02-29,2022-12-05,chlamydia,,,,,,"{Negative,""None Detected"",Positive,""Specimen unsatisfactory for evaluation""}"
13,chlamydia,LAB912--2091,"CHLAMYDIA TRACHOMATIS RNA, TMA, UROGENITAL","CHLAMYDIA DNA PROBE, DIRECT",2024-01-10,2022-11-28,chlamydia,,,,,,"{""NOT DETECTED"",TNP}"
17,chlamydia,LAB92092--2091,"CHLAMYDIA TRACHOMATIS RNA, TMA, UROGENITAL","THINPREP IMAGING PAP AND HPV DNA, C. TRACHOMATIS, N. GO",2024-03-05,2022-12-19,chlamydia,,,,,,"{""NOT DETECTED""}"
4117,creatinine,LAB15--25000200,CREATININE,BASIC METABOLIC PANEL,2024-03-06,2022-11-11,creatinine,,,,,,"{0.67,0.70,0.72,0.77,0.82}"
20,creatinine,LAB15--4943,CREATININE (MG/DL) IN SER/PLAS,BASIC METABOLIC PANEL,2023-08-17,2022-12-14,creatinine,,,,,,"{0.55,0.63,0.66,0.71,0.77,0.78,0.83,0.92,0.93,1.00,1.06,1.15,1.30,1.32,1.35,1.59,1.90,2.30}"
15166,creatinine,LAB17--25000200,CREATININE,COMPREHENSIVE METABOLIC PANEL,2024-03-06,2022-09-27,creatinine,,,,,,"{0.68,0.73,0.74,0.76,0.82}"
67,creatinine,LAB17--4943,CREATININE (MG/DL) IN SER/PLAS,COMPREHENSIVE METABOLIC PANEL,2023-09-23,2022-12-01,creatinine,,,,,,"{0.69,0.71,0.77,0.80,0.82,0.83,0.86,0.88,1.01,1.02,1.04,1.17,1.24}"
58,creatinine,LAB19--25000200,CREATININE,RENAL FUNCTION PANEL,2024-03-06,2022-11-30,creatinine,,,,,,"{0.36,0.46,0.51,0.55,0.70,0.74,0.78,0.84,0.86,0.95,1.50,1.56}"
1,creatinine,LAB4053--25000200,CREATININE,BASIC METABOLIC PANEL W/O EGFR,2022-12-15,2022-12-15,creatinine,,,,,,{0.66}
1,creatinine,LAB4054--25000200,CREATININE,"BASIC METABOLIC PANEL, PLASMA",2022-12-15,2022-12-15,creatinine,,,,,,{0.54}
3,creatinine,LAB4065--25000200,CREATININE,BUN/CREATININE RATIO,2023-11-02,2023-07-18,creatinine,,,,,,"{0.72,0.75,1.15}"
43,creatinine,LAB4114--25000200,CREATININE,"COMPREHENSIVE METABOLIC PANEL, PLASMA",2023-08-29,2022-12-06,creatinine,,,,,,"{0.65,0.75,0.78,0.82,0.89,0.91,1.06}"
1,creatinine,LAB4115--25000200,CREATININE,"COMPREHENSIVE METABOLIC PNL W/O CO2, ALT, EGFR",2023-02-22,2023-02-22,creatinine,,,,,,{1.14}
74,creatinine,LAB4121--25000200,CREATININE,"CREATININE, SERUM",2024-02-28,2022-12-09,creatinine,,,,,,"{0.70,0.74,0.76,0.77,0.79,0.84,0.89,0.91,0.92,0.93,0.99,1.01,1.05,1.07,1.09,1.11,1.14,1.16,1.20}"
3,creatinine,LAB4121--4943,CREATININE (MG/DL) IN SER/PLAS,"CREATININE, SERUM",2023-08-03,2023-02-08,creatinine,,,,,,"{0.90,0.98,1.09}"
2,creatinine,LAB70115--25000200,CREATININE,ADD ON COMPREHENSIVE METABOLIC PANEL (NON ORDERABLE),2023-08-10,2023-03-24,creatinine,,,,,,"{0.77,0.83}"
1,creatinine,LAB970--3206,"CREATINE, SERUM","CREATINE, SERUM",2023-07-13,2023-07-13,creatinine,,,,,,{0.6}
178,ft-abs,LAB4231--3035,FTA-ABS,TREPONEMA PALLIDUM (FTA) ANTIBODY,2024-01-24,2022-12-06,ft-abs,,,,,,"{Nonreactive,Reactive,ReactiveMinimal}"
282,gonorrhea,LAB13761--21169,GONORRHEA VAGINAL SWAB (MA DPH),CHLAMYDIA/GONORRHEA VAGINAL SWAB (MA DPH),2024-03-01,2023-06-06,gonorrhea,,,,,,"{Negative,""None Detected"",Positive,""Specimen unsatisfactory for evaluation""}"
5905,gonorrhea,LAB1376--2092,"NEISSERIA GONORRHOEAE RNA, TMA, UROGENITAL","CHLAMYDIA/N. GONORRHOEAE RNA, TMA, UROGENITAL",2024-03-06,2022-11-18,gonorrhea,,,,,,"{DETECTED,""NOT DETECTED""}"
8,gonorrhea,LAB1382--1230000019,EXTERNAL GONORRHEA SCREEN,GONORRHEA SCREEN,2022-12-27,2022-12-06,gonorrhea,,,,,,{Negative}
82,gonorrhea,LAB262--2092,"NEISSERIA GONORRHOEAE RNA, TMA, UROGENITAL","NEISSERIA GONORRHOEAE RNA, TMA, UROGENITAL",2023-11-22,2022-12-29,gonorrhea,,,,,,"{DETECTED,""NOT DETECTED"",TNP}"
210,gonorrhea,LAB40980--21153,GONORRHEA RECTAL SWAB (MA DPH),CHLAMYDIA/GONORRHEA RECTAL SWAB (MA DPH),2024-02-29,2023-06-05,gonorrhea,,,,,,"{Negative,""None Detected"",Positive,""Specimen unsatisfactory for evaluation""}"
9,gonorrhea,LAB4098--2184,"NEISSERIA GONORRHOEAE RNA, TMA, RECTAL","CHLAMYDIA/N. GONORRHOEAE RNA, TMA, RECTAL",2024-02-22,2023-01-20,gonorrhea,,,,,,"{DETECTED,""NOT DETECTED""}"
707,gonorrhea,LAB40991--21167,GONORRHEA THROAT SWAB (MA DPH),CHLAMYDIA/GONORRHEA THROAT SWAB (MA DPH),2024-03-01,2023-06-05,gonorrhea,,,,,,"{Negative,NEGATIVE,""None Detected"",Positive,""Specimen unsatisfactory for evaluation""}"
23,gonorrhea,LAB4099--2189,"NEISSERIA GONORRHOEAE RNA, TMA, THROAT","CHLAMYDIA/N. GONORRHOEAE RNA, TMA, THROAT",2024-02-28,2022-12-07,gonorrhea,,,,,,"{DETECTED,""NOT DETECTED""}"
9,gonorrhea,LAB4100--2092,"NEISSERIA GONORRHOEAE RNA, TMA, UROGENITAL","CHLAMYDIA/NG RNA,TMA, W/RFL ALT TARGET,UROGEN",2024-02-21,2022-12-12,gonorrhea,,,,,,"{""Not Detected""}"
141,gonorrhea,LAB4312--2092,"NEISSERIA GONORRHOEAE RNA, TMA, UROGENITAL",IMAGE-GUIDED PAP W/AGE BASED SCR PROTOCOLS,2024-03-04,2022-11-28,gonorrhea,,,,,,"{""NOT DETECTED""}"
636,gonorrhea,LAB4313--2092,"NEISSERIA GONORRHOEAE RNA, TMA, UROGENITAL","IMAGE-GUIDED PAP W/AGE BASED SCR,W/CT/NG",2024-03-05,2022-10-04,gonorrhea,,,,,,"{""NOT DETECTED""}"
1260,gonorrhea,LAB4314--2092,"NEISSERIA GONORRHOEAE RNA, TMA, UROGENITAL","IMAGE-GUIDED PAP W/AGE BASED SCR,W/CT/NG/TRICH",2024-03-05,2022-11-22,gonorrhea,,,,,,"{DETECTED,""NOT DETECTED""}"
1,gonorrhea,LAB4363--2189,"NEISSERIA GONORRHOEAE RNA, TMA, THROAT","NEISSERIA GONORRHOEAE RNA, TMA, THROAT",2023-08-14,2023-08-14,gonorrhea,,,,,,{TNP}
22,gonorrhea,LAB4470--2092,"NEISSERIA GONORRHOEAE RNA, TMA, UROGENITAL","SURESWAB(R) ADVANCED BV/CT/NG, TMA",2024-03-05,2022-11-30,gonorrhea,,,,,,"{""NOT DETECTED""}"
2722,gonorrhea,LAB4472--2092,"NEISSERIA GONORRHOEAE RNA, TMA, UROGENITAL","SURESWAB(R) ADVANCED VAGINITIS PLUS, TMA",2024-03-06,2022-11-25,gonorrhea,,,,,,"{DETECTED,""NOT DETECTED""}"
139,gonorrhea,LAB4480--2092,"NEISSERIA GONORRHOEAE RNA, TMA, UROGENITAL","CHLAMYDIA/N. GONORRHOEAE AND T. VAGINALIS RNA, QUALITATIVE, TMA",2024-03-06,2022-12-20,gonorrhea,,,,,,"{""NOT DETECTED""}"
1,gonorrhea,LAB4503--2092,"NEISSERIA GONORRHOEAE RNA, TMA, UROGENITAL","THINPREP PAP, HPV MRNA E6/E7 RFX HPV 16,18/45, CHLAMYDIA/N.GONORRHOEAE",2023-05-19,2023-05-19,gonorrhea,,,,,,"{""NOT DETECTED""}"
8,gonorrhea,LAB4512--2092,"NEISSERIA GONORRHOEAE RNA, TMA, UROGENITAL","THINPREP IMAGING PAP AND HPV MRNA E6/E7 REFLEX HPV 16,18/45 WITH CT/NG",2024-03-05,2023-12-12,gonorrhea,,,,,,"{""NOT DETECTED""}"
1,gonorrhea,LAB50096--3214,"NEISSERIA GONORRHOEAE RNA, TMA, UROGENITAL",SEXUALLY-TRANSMITTED INFECTIONS (STIS) CERVICITIS PANEL,2023-05-12,2023-05-12,gonorrhea,,,,,,"{""Not Detected""}"
501,gonorrhea,LAB60310--21168,GONORRHEA - URINE (MA DPH),CHLAMYDIA/GONORRHEA - URINE (MA DPH),2024-02-29,2023-06-05,gonorrhea,,,,,,"{Negative,""None Detected"",Positive,""Specimen unsatisfactory for evaluation""}"
17,gonorrhea,LAB92092--2092,"NEISSERIA GONORRHOEAE RNA, TMA, UROGENITAL","THINPREP IMAGING PAP AND HPV DNA, C. TRACHOMATIS, N. GO",2024-03-05,2022-12-19,gonorrhea,,,,,,"{""NOT DETECTED""}"
11253,hematocrit,LAB1748--903,HEMATOCRIT,CBC WITH AUTO DIFFERENTIAL,2024-03-06,2022-11-18,hematocrit,,,,,,"{38.8,39.0,39.1,40.1,40.2,41.6}"
47,hematocrit,LAB20253--903,HEMATOCRIT,CBC (INCLUDES DIFFERENTIAL AND PLATELETS) W/SMEAR REVIEW,2024-03-05,2023-01-30,hematocrit,,,,,,"{37.0,37.6,38.8,38.9,41.5,44.0}"
36,hematocrit,LAB2414--4987,HEMATOCRIT,CBC WITH AUTO DIFFERENTIAL - WAM AND NON-WAM,2023-09-25,2022-12-01,hematocrit,,,,,,"{35.5,40.3,41.2,41.9,43.0}"
1016,hematocrit,LAB288--903,HEMATOCRIT,HEMOGLOBINOPATHY EVALUATION,2024-03-06,2022-11-25,hematocrit,,,,,,"{34.0,34.7,34.9,35.6,36.8,38.0,38.3}"
14,hematocrit,LAB289--1230000003,EXTERNAL HEMATOCRIT,HEMATOCRIT,2022-12-27,2022-12-06,hematocrit,,,,,,"{1,29,30,32,35,36,37,38,39}"
13,hematocrit,LAB289--903,HEMATOCRIT,HEMATOCRIT,2023-02-09,2022-12-02,hematocrit,,,,,,"{30.4,30.8,31.3,33.1,33.8,33.9,34.1,34.3,34.6,35.0,35.3,35.5,38.1}"
37,hematocrit,LAB294--4987,HEMATOCRIT,CBC,2023-08-25,2022-12-01,hematocrit,,,,,,"{31.4,33.0,34.4,35.1,37.0,37.7,38.1,38.4,38.6,38.9,39.0,39.5,40.0,40.1,40.6,40.8,41.0,41.4,41.7,41.8,42.2,42.5,42.7,43.1,45.0,45.1,46.0,46.3,46.8,47.2,47.6,49.6,50.1,50.5}"
8648,hematocrit,LAB294--903,HEMATOCRIT,CBC,2024-03-06,2022-11-18,hematocrit,,,,,,"{37.1,37.9,38.4,38.7,38.9,40.1}"
15,hematocrit,LAB315--903,HEMATOCRIT,CBC (INCLUDES DIFF/PLT) WITH SMEAR REVIEW,2022-12-02,2022-11-25,hematocrit,,,,,,"{32.2,33.7,36.4,36.9,37.4,37.7,38.7,38.9,40.3,41.4,44.1,44.5,45.5,46.1}"
6,hematocrit,LAB4494--903,HEMATOCRIT,THALASSEMIA AND HEMOGLOBINOPATHY COMP,2024-02-07,2022-12-06,hematocrit,,,,,,"{31.5,35.4,37.7,40.3,48.5}"
4,hematocrit,LAB5060--903,HEMATOCRIT,HEMOGLOBIN EVALUATION,2023-07-28,2022-10-13,hematocrit,,,,,,"{30.8,38.1,38.8,42.7}"
3,hematocrit,LAB753--4987,HEMATOCRIT,HEMOGLOBIN + HEMATOCRIT,2023-08-29,2022-12-01,hematocrit,,,,,,"{31.9,38.1,39.1}"
1507,hematocrit,LAB753--903,HEMATOCRIT,HEMOGLOBIN + HEMATOCRIT,2024-03-06,2022-11-29,hematocrit,,,,,,"{35.1,35.5,36.1,36.2,36.3,36.8}"
46,hepatitis_a_igm_antibody,LAB551--1908,HEPATITIS A IGM,"HEPATITIS PANEL, ACUTE W/REFLEX TO CONFIRMATION",2024-01-31,2022-12-12,hepatitis_a_igm_antibody,,,,,,{NON-REACTIVE}
657,hepatitis_a_igm_antibody,LAB798--1908,HEPATITIS A IGM,HEPATITIS A IGM ANTIBODY,2024-03-06,2022-11-30,hepatitis_a_igm_antibody,,,,,,"{BORDERLINE,NON-REACTIVE}"
4,hepatitis_a_igm_antibody,LAB798--5057,HEPATITIS A VIRUS IGM AB,HEPATITIS A IGM ANTIBODY,2023-05-11,2022-12-06,hepatitis_a_igm_antibody,,,,,,"{""Non Reactive""}"
1471,hepatitis_b_core_ab,LAB1242--1407,HEPATITIS B CORE AB TOTAL,HEPATITIS B CORE AB TOTAL,2024-03-05,2022-11-21,hepatitis_b_core_ab,,,,,,"{NON-REACTIVE,REACTIVE,TNP}"
3,hepatitis_b_core_ab,LAB1242--5056,HEPATITIS B VIRUS CORE AB (PRESENCE) IN SER/PLAS BY IMM,HEPATITIS B CORE AB TOTAL,2023-07-28,2023-04-18,hepatitis_b_core_ab,,,,,,"{""Non Reactive""}"
16,hepatitis_b_core_ab,LAB4259--1407,HEPATITIS B CORE AB TOTAL,HEPATITIS B CORE AB TOTAL W/REFL IGM,2024-03-05,2023-01-11,hepatitis_b_core_ab,,,,,,"{NON-REACTIVE,REACTIVE}"
1,hepatitis_b_core_ab,LAB4273--1407,HEPATITIS B CORE AB TOTAL,"HEPATITIS PANEL, GENERAL",2023-02-22,2023-02-22,hepatitis_b_core_ab,,,,,,{REACTIVE}
2,hepatitis_b_core_ab,LAB7105--1407,HEPATITIS B CORE AB TOTAL,HEPATITIS B IMMUNITY PANEL,2024-02-08,2023-08-07,hepatitis_b_core_ab,,,,,,{NON-REACTIVE}
741,hepatitis_b_core_antigen_igm_antibody,LAB549--1909,HEPATITIS B CORE ANTIBODY (IGM),HEPATITIS B CORE ANTIBODY (IGM),2024-03-06,2022-11-29,hepatitis_b_core_antigen_igm_antibody,,,,,,"{BORDERLINE,NON-REACTIVE,TNP}"
46,hepatitis_b_core_antigen_igm_antibody,LAB551--1909,HEPATITIS B CORE ANTIBODY (IGM),"HEPATITIS PANEL, ACUTE W/REFLEX TO CONFIRMATION",2024-01-31,2022-12-12,hepatitis_b_core_antigen_igm_antibody,,,,,,{NON-REACTIVE}
1,hepatitis_b_e_antigen,LAB4264--1396,HEPATITIS BE ANTIGEN,HEPATITIS BE PANEL,2023-07-18,2023-07-18,hepatitis_b_e_antigen,,,,,,{NON-REACTIVE}
488,hepatitis_b_e_antigen,LAB908--1396,HEPATITIS BE ANTIGEN,HEPATITIS BE ANTIGEN,2024-02-27,2022-11-30,hepatitis_b_e_antigen,,,,,,"{NON-REACTIVE,REACTIVE,TNP}"
3,hepatitis_b_e_antigen,LAB908--5407,HEPATITIS BE ANTIGEN,HEPATITIS BE ANTIGEN,2023-03-11,2022-12-05,hepatitis_b_e_antigen,,,,,,{NON-REACTIVE}
1,hepatitis_b_surface_antigen,LAB4273--14290,HEPATITIS B SURFACE ANTIGEN,"HEPATITIS PANEL, GENERAL",2023-02-22,2023-02-22,hepatitis_b_surface_antigen,,,,,,{REACTIVE}
8,hepatitis_b_surface_antigen,LAB471--1230000008,EXTERNAL HEPATITIS B SURFACE ANTIGEN,HEPATITIS B SURFACE ANTIGEN W/REFL CONFIRM,2022-12-27,2022-12-13,hepatitis_b_surface_antigen,,,,,,{Negative}
5208,hepatitis_b_surface_antigen,LAB471--14290,HEPATITIS B SURFACE ANTIGEN,HEPATITIS B SURFACE ANTIGEN W/REFL CONFIRM,2024-03-06,2022-11-18,hepatitis_b_surface_antigen,,,,,,"{NON-REACTIVE,REACTIVE,TNP}"
14,hepatitis_b_surface_antigen,LAB471--5033,HEPATITIS B SURFACE ANTIGEN,HEPATITIS B SURFACE ANTIGEN W/REFL CONFIRM,2023-07-28,2022-12-05,hepatitis_b_surface_antigen,,,,,,"{""Non Reactive"",Reactive}"
6,hepatitis_b_surface_antigen,LAB471--918,HBSAG CONFIRMATION,HEPATITIS B SURFACE ANTIGEN W/REFL CONFIRM,2024-01-03,2023-03-29,hepatitis_b_surface_antigen,,,,,,"{NON-REACTIVE,REACTIVE}"
46,hepatitis_b_surface_antigen,LAB551--14290,HEPATITIS B SURFACE ANTIGEN,"HEPATITIS PANEL, ACUTE W/REFLEX TO CONFIRMATION",2024-01-31,2022-12-12,hepatitis_b_surface_antigen,,,,,,"{NON-REACTIVE,REACTIVE}"
1,hepatitis_b_surface_antigen,LAB551--918,HBSAG CONFIRMATION,"HEPATITIS PANEL, ACUTE W/REFLEX TO CONFIRMATION",2023-04-28,2023-04-28,hepatitis_b_surface_antigen,,,,,,{REACTIVE}
4,hepatitis_b_viral_dna,LAB1337--6362,HEPATITIS B DNA VIRAL LOAD COPIES/ML,"HEPATITIS B DNA PROBE, AMPLIFIED",2023-03-11,2022-12-05,hepatitis_b_viral_dna,10,,,,,"{"""",361}"
4,hepatitis_b_viral_dna,LAB1337--6363,HEPATITIS B DNA VIRAL LOAD IU/ML,"HEPATITIS B DNA PROBE, AMPLIFIED",2023-03-11,2022-12-05,hepatitis_b_viral_dna,10,,,,,"{"""",106}"
28,hepatitis_b_viral_dna,LAB4263--1394,HEPATITIS B VIRUS DNA,"HEPATITIS B VIRUS DNA, QN PCR W/REFL HBV GENOTYPE",2024-02-27,2022-11-29,hepatitis_b_viral_dna,10,,,,,"{""<10 DETECTED"",""<10 NOT DETECTED"",139,176,2450,26400,2670,293,307000,3700,419,4290,53700,622000000,730,786,81500,84,""NOT DETECTED""}"
574,hepatitis_b_viral_dna,LAB951--1394,HEPATITIS B VIRUS DNA,"HEPATITIS B VIRUS DNA, QN, REAL TIME PCR",2024-03-05,2022-11-28,hepatitis_b_viral_dna,10,,,,,"{""<10 DETECTED"",""<10 NOT DETECTED"",19,21,""NOT DETECTED""}"
16,hepatitis_c_elisa,HM56--20811,HEPATITIS C ANTIBODY (EXTERNAL RESULTS ONLY),HM HEPATITIS C ANTIBODY,2024-03-05,2023-10-25,hepatitis_c_elisa,,,,,,"{Nonreactive,Reactive}"
1695,hepatitis_c_elisa,LAB4265--1636,HEPATITIS C ANTIBODY,"HEPATITIS C AB W/RFL RNA, PCR W/RFL GENOTYPE,LIPA",2024-03-06,2022-12-01,hepatitis_c_elisa,,,,,,"{NON-REACTIVE,REACTIVE,TNP}"
1,hepatitis_c_elisa,LAB4273--1636,HEPATITIS C ANTIBODY,"HEPATITIS PANEL, GENERAL",2023-02-22,2023-02-22,hepatitis_c_elisa,,,,,,{NON-REACTIVE}
46,hepatitis_c_elisa,LAB551--1636,HEPATITIS C ANTIBODY,"HEPATITIS PANEL, ACUTE W/REFLEX TO CONFIRMATION",2024-01-31,2022-12-12,hepatitis_c_elisa,,,,,,"{NON-REACTIVE,REACTIVE}"
1,hepatitis_c_elisa,LAB5600--20811,HEPATITIS C ANTIBODY (EXTERNAL RESULTS ONLY),HEPATITIS C ANTIBODY (EXTERNAL RESULTS ONLY),2022-07-19,2022-07-19,hepatitis_c_elisa,,,,,,{Nonreactive}
1492,hepatitis_c_elisa,LAB60710--20400,HEPATITIS C ANTIBODY (MA DPH),HEPATITIS C ANTIBODY (MA DPH),2024-03-01,2022-12-01,hepatitis_c_elisa,,,,,,"{Borderline,Inconclusive,Nonreactive,Reactive}"
4331,hepatitis_c_elisa,LAB868--1636,HEPATITIS C ANTIBODY,"HEPATITIS C AB W/REFL TO HCV RNA, QN, PCR",2024-03-06,2022-11-18,hepatitis_c_elisa,,,,,,"{BORDERLINE,NON-REACTIVE,REACTIVE,TNP}"
10,hepatitis_c_elisa,LAB868--4950,HEPATITIS C VIRUS AB PRESENCE IN SERUM,"HEPATITIS C AB W/REFL TO HCV RNA, QN, PCR",2023-07-13,2022-12-05,hepatitis_c_elisa,,,,,,"{""Non Reactive"",Reactive}"
1,hepatitis_c_genotype,LAB4266--2789,HCV NS5A SUBTYPE,HEPATITIS C VIRAL RNA GENO 1 NS5A DRUG RESIST,2023-05-08,2023-05-08,hepatitis_c_genotype,,,,,,{1a}
1,hepatitis_c_genotype,LAB4268--1968,"HEPATITIS C VIRAL RNA GENOTYPE, LIPA",HEPATITIS C VIRAL RNA W/ RFL NS5A DRUG RESIST,2023-05-08,2023-05-08,hepatitis_c_genotype,,,,,,{1}
72,hepatitis_c_genotype,LAB915--1968,"HEPATITIS C VIRAL RNA GENOTYPE, LIPA","HEPATITIS C VIRAL RNA GENOTYPE, LIPA",2024-03-01,2022-11-25,hepatitis_c_genotype,,,,,,"{1a,1b,2,3,4}"
1,hepatitis_c_genotype,LAB915--6849,"HCV RNA GENOTYPE,LIPA","HEPATITIS C VIRAL RNA GENOTYPE, LIPA",2023-06-29,2023-06-29,hepatitis_c_genotype,,,,,,{1a}
5,hepatitis_c_rna,LAB4244--2034,"HCV RNA, QUANTITATIVE REAL TIME PCR","HCV RNA, QN,REAL TIME PCR W/REFL GENOTYPE, LIPA",2024-02-12,2022-11-25,hepatitis_c_rna,15,,,,,"{""<15 NOT DETECTED"",1670000,2990000,727000,TNP}"
473,hepatitis_c_rna,LAB4247--2034,"HCV RNA, QUANTITATIVE REAL TIME PCR","HEPATITIS C VIRAL RNA, QUANTITATIVE, REAL-TIME PCR",2024-03-05,2022-11-25,hepatitis_c_rna,15,,,,,"{1020000,10200000,10500000,10800000,1110000,11400000,11600000,11700000,11900,12000000,1210000,1230000,12500000,12900000,1370000,138,1420000,14200000,1430000,1460000,1530000,154000,1580000,""<15 DETECTED"",""<15 NOT DETECTED"",16500000,17200000,18,18700000,1890000,1950000,1990000,2000000,2010,2050000,20700000,21100000,21400,21800000,2270000,2370000,23800000,2400000,241000,243000,2470000,2540000,2900000,2970000,3110000,31700,32000000,3270000,33900000,34100000,34500000,3510000,35700,36,3720000,3740000,3980000,39900000,404,4440000,4570000,460000,46500,4650000,4680000,4700000,4880000,50700,509000,5100000,5200,5210,526000,5340000,5350000,5360000,5500000,55400,5670000,5680000,590000,596000,6280000,6360000,6550000,65700,6580000,664000,68,682000,7110000,718000,7540000,784000,8030000,821000,8220000,82400,853000,9050000,91000,9200000,92200,9300000,9340000,960000,9680000,989000,TNP}"
2,hepatitis_c_rna,LAB4269--2034,"HCV RNA, QUANTITATIVE REAL TIME PCR","HEPATITIS C VIRAL RNA, QN REAL TIME PCR W/REFLS",2023-11-02,2023-05-08,hepatitis_c_rna,15,,,,,"{""<15 NOT DETECTED"",7690000}"
40,hepatitis_c_rna,LAB4909--2034,"HCV RNA, QUANTITATIVE REAL TIME PCR","HCV RNA, QN,REAL TIME PCR W/REFL GENOTYPE, LIPA (NON ORDERABLE)",2024-03-01,2022-12-03,hepatitis_c_rna,15,,,,,"{10000000,1120000,119000,""<15 NOT DETECTED"",16100000,193000,19400000,19700000,2010000,25500000,39800,4510000,571000,70800,71500,766000}"
141,hepatitis_c_rna,LAB4927--2034,"HCV RNA, QUANTITATIVE REAL TIME PCR","HCV RNA, QUANTITATIVE REAL TIME PCR POSITIVE",2024-03-01,2022-12-06,hepatitis_c_rna,15,,,,,"{109,1220000,1250000,14900000,15300000,""<15 DETECTED"",""<15 NOT DETECTED"",1600000,19400000,24500000,2530000,3210,3390000,3410000,3420000,4650000,5160000,5420000,5500000,580,5840000,6150000,6810,7360000,78600,7980000,886000,8940,963000,TNP}"
8,hepatitis_c_rna,LAB6073--6365,"HCV RNA VIRAL LOAD, INTERP","HEPATITIS C VIRAL LOAD, RNA, QUANTIFICATION",2023-06-29,2022-12-28,hepatitis_c_rna,15,,,,,"{Detected,""Not Detected""}"
8,hepatitis_c_rna,LAB6073--6367,HCV RNA BY RT-PCR,"HEPATITIS C VIRAL LOAD, RNA, QUANTIFICATION",2023-06-29,2022-12-28,hepatitis_c_rna,15,,,,,"{"""",200419,3948216,5262660,5579,92}"
1,hiv_ab_diff,LAB159--1230000009,EXTERNAL HIV-1 ANTIBODY,"HIV-1 ANTIBODY, EIA",2023-02-20,2023-02-20,hiv_ab_diff,,,,,,{Negative}
77,hiv_ab_diff,LAB4901--14352,HIV 1 ANTIBODY,"HIV 1/2 ANTIGEN/ANTIBODY,FOURTH GENERATION W/RFL POSITIVE",2024-03-04,2022-11-21,hiv_ab_diff,,,,,,"{INDETERMINATE,NEGATIVE,POSITIVE}"
77,hiv_ab_diff,LAB4901--14353,HIV 2 ANTIBODY,"HIV 1/2 ANTIGEN/ANTIBODY,FOURTH GENERATION W/RFL POSITIVE",2024-03-04,2022-11-21,hiv_ab_diff,,,,,,"{INDETERMINATE,NEGATIVE}"
10,hiv_ag_ab,LAB473--1551998,HIV-1 AND HIV-2 ANTIBODIES,"HIV 1/2 ANTIGEN/ANTIBODY, FOURTH GENERATION W/RFL",2022-12-27,2022-12-06,hiv_ag_ab,,,,,,"{neg,Neg,negative,Negative,NR}"
7597,hiv_ag_ab,LAB473--2198,"HIV AG/AB, 4TH GEN","HIV 1/2 ANTIGEN/ANTIBODY, FOURTH GENERATION W/RFL",2024-03-06,2022-09-27,hiv_ag_ab,,,,,,"{NON-REACTIVE,""REPEATEDLY REACTIVE"",TNP}"
13,hiv_ag_ab,LAB473--5088,"HIV-1/2 AB/AG, P24 AG SCREEN","HIV 1/2 ANTIGEN/ANTIBODY, FOURTH GENERATION W/RFL",2023-07-29,2022-12-05,hiv_ag_ab,,,,,,"{""Non Reactive""}"
2,hiv_ag_ab,LAB5597--20399,HIV AG/AB (MA DPH),HIV 1/2 ANTIGEN AND ANTIBODY (EXTERNAL RESULTS ONLY),2022-09-28,2022-08-17,hiv_ag_ab,,,,,,{Nonreactive}
1494,hiv_ag_ab,LAB60791--20399,HIV AG/AB (MA DPH),HIV ANTIBODY/ANTIGEN (MA DPH),2024-03-01,2022-12-01,hiv_ag_ab,,,,,,"{Borderline,Nonreactive,Reactive}"
25,hiv_pcr,LAB1348--3057,"HIV 1 DNA, QUAL, PCR","HIV 1 DNA, QUAL, PCR",2024-02-01,2022-12-01,hiv_pcr,,,,,,"{""Not Detected"",TNP}"
3,hiv_pcr,LAB4284--2807,"HIV 1 PR, RT PROVIRAL DNA","HIV 1 RESIST,PROVIRAL DNA (RTI,PI,INTEGRASE INH)",2022-12-07,2022-11-22,hiv_pcr,,,,,,"{DETECTED,TNP}"
2,hiv_pcr,LAB4284--2808,HIV 1 INTEGRASE PROVIRAL DNA,"HIV 1 RESIST,PROVIRAL DNA (RTI,PI,INTEGRASE INH)",2022-12-07,2022-11-25,hiv_pcr,,,,,,{DETECTED}
34,hiv_pcr,LAB4285--2199,"HIV 1 RNA, QL REAL TIME PCR","HIV 1 RNA, QL REAL TIME PCR",2024-02-12,2022-11-21,hiv_pcr,,,,,,"{Detected,""Not Detected"",""NOT DETECTED"",TNP}"
1,hiv_rna_viral,LAB4286--14365,"HIV 1 RNA, QN PCR","HIV 1 RNA, QN PCR W/REFLEX TO GENOTYPE",2023-02-22,2023-02-22,hiv_rna_viral,,,,,,"{""Not Detected""}"
1,hiv_rna_viral,LAB4286--14366,"HIV 1 RNA, QN PCR","HIV 1 RNA, QN PCR W/REFLEX TO GENOTYPE",2023-02-22,2023-02-22,hiv_rna_viral,,,,,,"{""Not Detected""}"
690,hiv_rna_viral,LAB4287--14365,"HIV 1 RNA, QN PCR","HIV 1 RNA, QN PCR W/RFL GENO (RTI,PI,INTEGRASE)",2024-03-05,2022-12-01,hiv_rna_viral,,,,,,"{""<20 DETECTED"",30,34,43,57,""NOT DETECTED"",TNP}"
1407,hiv_rna_viral,LAB919--14365,"HIV 1 RNA, QN PCR","HIV 1 RNA, QUANTITATIVE REAL TIME PCR",2024-03-06,2022-11-17,hiv_rna_viral,,,,,,"{""<20 DETECTED"",21,22,38,""NOT DETECTED"",TNP}"
11,hiv_rna_viral,LAB919--6370,HIV-1 RNA VIRAL LOAD,"HIV 1 RNA, QUANTITATIVE REAL TIME PCR",2023-08-29,2022-12-14,hiv_rna_viral,,,,,,"{"""",<20,23,29}"
4,lyme_ab_non_confirm,LAB3292--21290,LYME AB (IGG),"LYME DISEASE SUPPLEMENTAL ANTIBODIES (IGG, IGM), IA",2023-11-29,2023-08-28,lyme_ab_non_confirm,,,,,,"{0.98,6.63,""< OR = 0.90""}"
4,lyme_ab_non_confirm,LAB3292--21291,LYME AB (IGM),"LYME DISEASE SUPPLEMENTAL ANTIBODIES (IGG, IGM), IA",2023-11-29,2023-08-28,lyme_ab_non_confirm,,,,,,"{0.98,1.47,""< OR = 0.90""}"
11,lyme_ab_non_confirm,LAB36942--1197,LYME AB SCREEN,"TICK-BORNE DISEASE, ANTIBODY PANEL",2024-02-14,2023-05-15,lyme_ab_non_confirm,,,,,,{<0.90}
12,lyme_ab_non_confirm,LAB39733--1197,LYME AB SCREEN,"LYME DISEASE ANTIBODY W/REFLEX TO IMMUNOASSAY (IGG,IGM)",2024-02-07,2023-01-04,lyme_ab_non_confirm,,,,,,"{1.09,1.40,1.64,2.17,""< OR = 0.90""}"
101,lyme_ab_non_confirm,LAB4342--1197,LYME AB SCREEN,"LYME DISEASE AB W/REFL TO BLOT (IGG, IGM)",2024-02-28,2022-11-25,lyme_ab_non_confirm,,,,,,"{<0.90,TNP}"
1,lyme_ab_non_confirm,LAB4342--6967,LYME AB SCREEN,"LYME DISEASE AB W/REFL TO BLOT (IGG, IGM)",2022-12-29,2022-12-29,lyme_ab_non_confirm,,,,,,{<0.90}
6,lyme_ab_non_confirm,LAB4965--14327,LYME AB SCREEN,LYME AB SCREEN,2023-12-08,2023-08-14,lyme_ab_non_confirm,,,,,,"{1.09,1.11,1.31,1.49,1.63,2.36}"
1,lyme_pcr,LAB1324--1178,"BORRELIA SPECIES DNA, QL REAL TIME PCR, MISC","LYME DISEASE (BORRELIA SPP)DNA,QL RT PCR,BLOOD",2024-02-27,2024-02-27,lyme_pcr,,,,,,"{""NOT DETECTED""}"
3,lyme_pcr,LAB4523--20507,"BORRELIA SPECIES DNA, QL REAL TIME PCR",TICK BORNE DISEASE BY PCR,2023-07-07,2023-05-30,lyme_pcr,,,,,,"{""NOT DETECTED""}"
11253,platelet_count,LAB1748--14270,PLATELET COUNT,CBC WITH AUTO DIFFERENTIAL,2024-03-06,2022-11-18,platelet_count,,,,,,"{245,246,262,264,265,268}"
47,platelet_count,LAB20253--14270,PLATELET COUNT,CBC (INCLUDES DIFFERENTIAL AND PLATELETS) W/SMEAR REVIEW,2024-03-05,2023-01-30,platelet_count,,,,,,"{179,207,229,232,233,237,238,242,250,253,263,274,275,279,288,299,301,306,308,313,322,324,326,335,338,347,354,356,362,366,367,377,378,381,382,397,413,418,421,428,439,466,476,513,519}"
36,platelet_count,LAB2414--5362,PLATELET COUNT,CBC WITH AUTO DIFFERENTIAL - WAM AND NON-WAM,2023-09-25,2022-12-01,platelet_count,,,,,,"{176,181,183,189,196,208,210,220,221,228,232,233,251,252,253,255,258,269,274,288,290,297,300,301,302,311,316,321,336,343,358,427,466,536}"
8648,platelet_count,LAB294--14270,PLATELET COUNT,CBC,2024-03-06,2022-11-18,platelet_count,,,,,,"{235,238,247,248,278,290}"
37,platelet_count,LAB294--5362,PLATELET COUNT,CBC,2023-08-25,2022-12-01,platelet_count,,,,,,"{116,141,142,154,168,169,170,172,194,196,208,209,211,214,220,226,227,230,240,247,251,257,261,290,291,295,299,306,312,318,319,359,40,402,793}"
5,platelet_count,LAB301--1230000011,EXTERNAL PLATELET COUNT,PLATELET COUNT,2022-12-27,2022-12-13,platelet_count,,,,,,"{151,286,309,321,454}"
25,platelet_count,LAB301--14270,PLATELET COUNT,PLATELET COUNT,2024-02-28,2022-12-02,platelet_count,,,,,,"{112,187,240,245,274,284,296,302,337,347,352,354,358,385,396,398,527,67,85,88,97,TNP}"
1,platelet_count,LAB301--5362,PLATELET COUNT,PLATELET COUNT,2023-05-08,2023-05-08,platelet_count,,,,,,{283}
15,platelet_count,LAB315--14270,PLATELET COUNT,CBC (INCLUDES DIFF/PLT) WITH SMEAR REVIEW,2022-12-02,2022-11-25,platelet_count,,,,,,"{153,232,243,244,258,263,272,290,306,309,321,387,437}"
1,platelet_count,LAB4340--14270,PLATELET COUNT,"LIVER FIBROSIS, HEPATIC PANEL W/FIB 4 INDEX",2024-02-08,2024-02-08,platelet_count,,,,,,{309}
11253,rbc,LAB1748--14269,"RED BLOOD CELL COUNT, BLOOD",CBC WITH AUTO DIFFERENTIAL,2024-03-06,2022-11-18,rbc,,,,,,"{4.43,4.60,4.63,4.65,4.72}"
47,rbc,LAB20253--14269,"RED BLOOD CELL COUNT, BLOOD",CBC (INCLUDES DIFFERENTIAL AND PLATELETS) W/SMEAR REVIEW,2024-03-05,2023-01-30,rbc,,,,,,"{4.45,4.53,4.63,4.74,4.75,5.30}"
36,rbc,LAB2414--5367,RED BLOOD COUNT,CBC WITH AUTO DIFFERENTIAL - WAM AND NON-WAM,2023-09-25,2022-12-01,rbc,,,,,,"{3.59,3.88,3.96,4.16,4.17,4.23,4.24,4.25,4.29,4.31,4.32,4.33,4.34,4.44,4.48,4.52,4.55,4.57,4.66,4.67,4.68,4.70,4.76,4.82,4.83,4.86,4.88,4.92,4.95,4.97,5.00,5.06,5.24}"
1026,rbc,LAB288--14269,"RED BLOOD CELL COUNT, BLOOD",HEMOGLOBINOPATHY EVALUATION,2024-03-06,2022-11-25,rbc,,,,,,"{4.03,4.05,4.18,4.19,4.22,4.35,4.41}"
8648,rbc,LAB294--14269,"RED BLOOD CELL COUNT, BLOOD",CBC,2024-03-06,2022-11-18,rbc,,,,,,"{4.43,4.45,4.49,4.63,4.69}"
37,rbc,LAB294--5367,RED BLOOD COUNT,CBC,2023-08-25,2022-12-01,rbc,,,,,,"{3.56,3.57,3.65,3.74,3.79,3.88,3.90,3.96,4.01,4.14,4.31,4.38,4.44,4.48,4.50,4.60,4.63,4.64,4.65,4.66,4.81,4.87,4.88,4.98,5.00,5.09,5.11,5.16,5.17,5.26,5.35,5.39,5.62,5.64,5.92,6.07}"
1,rbc,LAB295--14269,"RED BLOOD CELL COUNT, BLOOD",RED BLOOD COUNT,2023-09-11,2023-09-11,rbc,,,,,,{5.17}
15,rbc,LAB315--14269,"RED BLOOD CELL COUNT, BLOOD",CBC (INCLUDES DIFF/PLT) WITH SMEAR REVIEW,2022-12-02,2022-11-25,rbc,,,,,,"{3.84,3.93,3.95,4.08,4.19,4.30,4.36,4.47,4.53,4.70,4.73,4.99,5.24,5.31,5.43}"
6,rbc,LAB4494--14269,"RED BLOOD CELL COUNT, BLOOD",THALASSEMIA AND HEMOGLOBINOPATHY COMP,2024-02-07,2022-12-06,rbc,,,,,,"{4.22,4.25,4.85,4.91,5.10,5.66}"
4,rbc,LAB5060--14269,"RED BLOOD CELL COUNT, BLOOD",HEMOGLOBIN EVALUATION,2023-07-28,2022-10-13,rbc,,,,,,"{3.86,4.25,4.89,4.96}"
4885,rpr,LAB4438--14289,RPR (DX) W/REFL TITER AND CONFIRMATORY TESTING,RPR (DX) W/REFL TITER AND CONFIRMATORY TESTING,2024-03-06,2022-11-18,rpr,,,,,,"{NON-REACTIVE,REACTIVE,TNP}"
3,rpr,LAB4439--1183,RPR (MONITOR) W/REFL TITER,RPR (MONITOR) W/REFL TITER (REFL),2024-02-16,2022-12-02,rpr,,,,,,{NON-REACTIVE}
288,rpr,LAB4928--14321,RPR TITER,RPR TITER REFLEX,2024-03-04,2022-11-29,rpr,,,,,,"{1:1,1:16,1:2,1:4,1:8}"
1404,rpr,LAB49401--20401,SYPHILIS RPR (MA DPH),SYPHILIS ABS (MA DPH),2024-03-01,2022-12-01,rpr,,,,,,"{Borderline,Nonreactive,Reactive}"
833,rpr,LAB494--1183,RPR (MONITOR) W/REFL TITER,RPR (MONITOR) W/REFL TITER,2024-03-05,2022-11-29,rpr,,,,,,"{NON-REACTIVE,REACTIVE,TNP}"
9,rpr,LAB494--1230000006,EXTERNAL SYPHILIS RPR SCREEN,RPR (MONITOR) W/REFL TITER,2022-12-27,2022-12-06,rpr,,,,,,{Nonreactive}
48,rpr,LAB4942--14326,RPR SCREEN W/REFL TITER,RPR SCREEN W/REFL TITER,2024-02-14,2023-03-02,rpr,,,,,,"{NON-REACTIVE,REACTIVE}"
1,rpr,LAB5134--4253,"RPR, QUANTITATIVE",RPR QUANTITIATIVE (REFLEX ONLY),2022-11-23,2022-11-23,rpr,,"","","","",{Non-Reactive}
3,tb_igra,LAB10025--4363,QUANTIFERON - TB GOLD TEST,QUANTIFERON TB GOLD,2023-07-28,2023-05-23,tb_igra,,,,,,"{NEGATIVE,POSITIVE}"
3106,tb_igra,LAB1196--1186,"QUANTIFERON(R)-TB GOLD PLUS, 1 TUBE","QUANTIFERON(R)-TB GOLD PLUS, 1 TUBE",2024-03-01,2022-09-27,tb_igra,,,,,,"{INDETERMINATE,NEGATIVE,POSITIVE,TNP}"
5,tb_igra,LAB4552--3207,T-SPOT.TB,T-SPOT(R).TB,2024-02-04,2022-11-30,tb_igra,,,,,,"{Negative,TNP}"
1,tb_igra,LAB4552--3603,T SPOT TB,T-SPOT(R).TB,2023-11-06,2023-11-06,tb_igra,,,,,,{Negative}
7,tp-cia,LAB11423--20366,TREPONEMA PALLIDUM AB SCREEN,TREPONEMA PALLIDUM ABS(SYPHILIS WITH RPR?TITER),2023-03-28,2022-11-23,tp-cia,,,,,,"{""Non Reactive"",Reactive}"
44,tp-cia,LAB12955--6825,TREPONEMA PALLIDUM AB,TREPONEMA PALLIDUM ANTIBODY (NON ORDERABLE),2024-03-04,2023-12-12,tp-cia,,,,,,"{NEGATIVE,POSITIVE}"
790,tp-cia,LAB4485--1188,T. PALLIDUM AB,SYPHILIS ANTIBODY CASCADING REFLEX,2024-03-06,2022-12-28,tp-cia,,"","","","","{EQUIVOCAL,NEGATIVE,POSITIVE,TNP}"
918,tp-cia,LAB49401--21170,SYPHILIS ABS (MA DPH),SYPHILIS ABS (MA DPH),2024-03-01,2023-06-05,tp-cia,,,,,,"{Borderline,Nonreactive,Reactive}"
23,tppa,LAB0653--1181,"TREPONEMA PALLIDUM AB, PARTICLE AGGLUTINATION","TREPONEMA PALLIDUM ANTIBODY, PARTICLE AGGLUTINATION",2024-02-08,2023-06-23,tppa,,,,,,"{NON-REACTIVE,REACTIVE}"
1,tppa,LAB338--7297,"TREPONEMA PALLIDUM AB,PA","TREPONEMA PALLIDUM, CONFIRMATION",2022-12-15,2022-12-15,tppa,,,,,,"{""""}"
5,tppa,LAB4545--1181,"TREPONEMA PALLIDUM AB, PARTICLE AGGLUTINATION","TREPONEMA PALLIDUM AB, PARTICLE AGGLUTINATION",2023-04-24,2023-01-09,tppa,,,,,,"{NON-REACTIVE,REACTIVE}"
1,tppa,LAB494--5806,TREPONEMA PALLIDUM AB PRESENCE IN SERUM BY AGGLUTINATION,RPR (MONITOR) W/REFL TITER,2023-01-03,2023-01-03,tppa,,,,,,"{""Non Reactive""}"
11345,wbc,LAB1748--14268,"WHITE BLOOD CELL COUNT, BLOOD",CBC WITH AUTO DIFFERENTIAL,2024-03-06,2022-09-27,wbc,,,,,,"{5.6,5.8,6.3,6.5,6.9}"
47,wbc,LAB20253--14268,"WHITE BLOOD CELL COUNT, BLOOD",CBC (INCLUDES DIFFERENTIAL AND PLATELETS) W/SMEAR REVIEW,2024-03-05,2023-01-30,wbc,,,,,,"{4.9,6.3,6.4,6.5,6.7,7.2,7.4,7.5,8.2}"
36,wbc,LAB2414--5380,WHITE BLOOD COUNT,CBC WITH AUTO DIFFERENTIAL - WAM AND NON-WAM,2023-09-25,2022-12-01,wbc,,,,,,"{10.9,4.5,6.2,6.6,7.6}"
8707,wbc,LAB294--14268,"WHITE BLOOD CELL COUNT, BLOOD",CBC,2024-03-06,2022-11-18,wbc,,,,,,"{5.9,6.2,6.3,6.5,6.7}"
37,wbc,LAB294--5380,WHITE BLOOD COUNT,CBC,2023-08-25,2022-12-01,wbc,,,,,,"{4.7,5.3,5.4,6.5,6.6,7.0,7.7}"
15,wbc,LAB315--14268,"WHITE BLOOD CELL COUNT, BLOOD",CBC (INCLUDES DIFF/PLT) WITH SMEAR REVIEW,2022-12-02,2022-11-25,wbc,,,,,,"{11.4,4.5,4.9,5.1,5.7,5.9,6.2,6.8,7.0,7.3,7.4,7.6,8.0,8.2}"
10,wbc,LAB843--14268,"WHITE BLOOD CELL COUNT, BLOOD",WHITE BLOOD COUNT AND DIFFERENTIAL,2024-01-28,2022-12-18,wbc,,,,,,"{10.5,11.0,11.6,26.4,3.8,4.0,6.9,8.3,9.7}"
