id,condition_id,drug_name,notes
1,lyme,doxycycline,""
2,lyme,amoxicillin,""
3,lyme,cefuroxime,""
4,lyme,ceftriaxone,""
5,lyme,cefotaxime,""
6,chlamydia,azithromycin,""
7,chlamydia,levofloxacin,""
8,chlamydia,ofloxacin,""
9,chlamydia,ciprofloxacin,""
10,chlamydia,doxycycline,""
11,chlamydia,eryrthromycin,""
12,chlamydia,amoxicillin,""
13,chlamydia,EES,""
14,gonorrhea,amoxicillin,""
15,gonorrhea,cefixime,""
16,gonorrhea,cefotaxime,""
17,gonorrhea,cefpodoxime,""
18,gonorrhea,ceftizoxime,""
19,gonorrhea,ceftriaxone,""
20,gonorrhea,ciprofloxacin,""
21,gonorrhea,gatifloxacin,""
22,gonorrhea,levofloxacin,""
23,gonorrhea,moxifloxacin,""
24,gonorrhea,ofloxacin,""
25,gonorrhea,spectinomycin,""
26,syphilis,ceftriaxone,""
27,syphilis,doxycycline,""
28,syphilis,pen g,""
29,syphilis,penicillin g,""
30,pelvic_inflammatory_disease,amoxicillin-clavulinic acid,""
31,pelvic_inflammatory_disease,ampicillin-sulbactam,""
32,pelvic_inflammatory_disease,azithromycin,""
33,pelvic_inflammatory_disease,cefitizoxime,""
34,pelvic_inflammatory_disease,cefotaxime,""
35,pelvic_inflammatory_disease,cefotetan,""
36,pelvic_inflammatory_disease,cefoxitin,""
37,pelvic_inflammatory_disease,ceftriaxone,""
38,pelvic_inflammatory_disease,ciprofloxacin,""
39,pelvic_inflammatory_disease,clindamycin,""
40,pelvic_inflammatory_disease,doxycycline,""
41,pelvic_inflammatory_disease,gentamicin,""
42,pelvic_inflammatory_disease,levofloxacin,""
43,pelvic_inflammatory_disease,metronidazole,""
44,pelvic_inflammatory_disease,ofloxacin,""
45,pertussis,azithromycin,""
46,pertussis,clarithromycin,""
47,pertussis,erythromycin,""
48,pertussis,trimethoprim-sulfamethoxazole,""
89,hepatitis_c,epclusa,
50,tuberculosis,capreomycin,""
90,hepatitis_c,ledipasvir/sofosbuvir,
52,tuberculosis,cycloserine,""
53,tuberculosis,ethambutol,""
54,tuberculosis,ethionamide,""
91,hepatitis_c,mavyret,
56,tuberculosis,isoniazid,""
57,tuberculosis,kanamycin,""
92,anaplasmosis,Doxycycline,
59,tuberculosis,moxifloxacin,""
60,tuberculosis,para-aminosalicylic acid,""
61,tuberculosis,pyrazinamide,""
62,tuberculosis,pza,""
63,tuberculosis,rifabutin,""
64,tuberculosis,rifampin,""
65,tuberculosis,rifapentine,""
66,tuberculosis,streptomycin,""
67,gonorrhea,azithromycin,""
68,gonorrhea,doxycycline,""
69,gonorrhea,gemifloxacin,""
93,anaplasmosis,Rifampin,
94,babesiosis,Atovaquone,
95,babesiosis,Azithromycin,
96,babesiosis,Clindamycin,
97,babesiosis,Quinine,
70,hepatitis_c,ribavirin,""
71,hepatitis_c,daclatasvir,""
72,hepatitis_c,sofosbuvir/velpatasvir,""
73,hepatitis_c,ledipasvir/sofosbuvir ,""
74,hepatitis_c,telaprevir,""
75,hepatitis_c,interferon alfacon-1,""
76,hepatitis_c,interferon alfa-2b,""
77,hepatitis_c,glecaprevir/pibrentasvir,""
78,hepatitis_c,simeprevir,""
79,hepatitis_c,peginterferon alfa-2a,""
80,hepatitis_c,peginterferon alfa-2b,""
81,hepatitis_c,ribavirin/interferon a-2b,""
82,hepatitis_c,sofosbuvir,""
83,hepatitis_c,ombitasvir/paritaprev/ritonav,""
84,hepatitis_c,boceprevir,""
85,hepatitis_c,ombita/paritap/riton/dasabuvir,""
86,hepatitis_c,sofosbuvir/velpatas/voxilaprev,""
87,hepatitis_c,elbasvir/grazoprevir,""
88,hepatitis_c,interferon alfa-2a,""
