BLACK,41,152,99
CAUCASIAN,30,110,74
ASIAN,32,110,76
BLACK,32,105,70
OTHER,39,112,58
CAUCASIAN,33,112,74
OTHER,38,109,68
CAUCASIAN,25,102,63
BLACK,35,95,60
OTHER,32,112,72
CAUCASIAN,31,133,87
OTHER,33,128,86
CAUCASIAN,42,134,80
CAUCASIAN,34,121,71
OTHER,34,107,72
CAUCASIAN,17,104,67
CAUCASIAN,40,116,82
OTHER,23,118,82
CAUCASIAN,27,101,56
BLACK,38,116,76
BLACK,33,94,55
OTHER,29,134,68
BLACK,26,113,76
OTHER,29,141,101
BLACK,36,113,60
BLACK,40,132,82
OTHER,39,106,69
BLACK,17,124,81
OTHER,14,127,78
BLACK,33,128,71
OTHER,17,103,65
OTHER,37,132,84
BLACK,32,97,78
BLACK,31,120,73
CAUCASIAN,27,153,89
OTHER,28,109,74
CAUCASIAN,25,121,83
OTHER,30,125,79
BLACK,32,112,72
CAUCASIAN,23,123,83
OTHER,28,106,72
OTHER,38,105,64
OTHER,39,117,78
OTHER,31,124,83
CAUCASIAN,17,129,71
OTHER,38,115,75
CAUCASIAN,33,97,65
OTHER,18,123,66
OTHER,31,127,78
CAUCASIAN,41,97,67
OTHER,21,111,76
CAUCASIAN,34,104,71
CAUCASIAN,30,129,80
CAUCASIAN,28,129,67
CAUCASIAN,27,126,83
OTHER,24,124,80
OTHER,38,122,75
OTHER,32,104,72
BLACK,36,134,84
OTHER,28,107,68
OTHER,36,119,79
BLACK,16,117,78
CAUCASIAN,39,117,80
OTHER,37,106,68
BLACK,42,142,87
OTHER,34,129,80
CAUCASIAN,30,131,74
OTHER,34,138,80
CAUCASIAN,33,110,71
OTHER,26,106,64
OTHER,21,110,66
BLACK,18,116,78
OTHER,25,109,77
CAUCASIAN,29,101,63
OTHER,33,102,66
OTHER,22,117,77
ASIAN,24,112,71
OTHER,34,112,66
BLACK,31,118,60
OTHER,23,120,78
BLACK,28,136,88
CAUCASIAN,30,149,78
OTHER,26,126,83
ASIAN,30,126,76
OTHER,37,109,69
OTHER,17,110,70
OTHER,37,155,90
CAUCASIAN,40,156,90
OTHER,39,125,75
OTHER,33,92,59
CAUCASIAN,30,128,84
CAUCASIAN,33,120,75
OTHER,37,97,57
CAUCASIAN,33,118,85
OTHER,34,123,82
BLACK,28,115,71
OTHER,22,105,74
OTHER,21,132,68
CAUCASIAN,43,108,50
OTHER,34,114,75
OTHER,33,127,73
OTHER,31,136,80
OTHER,37,110,73
BLACK,24,122,82
CAUCASIAN,33,114,60
CAUCASIAN,33,136,94
OTHER,33,120,72
OTHER,28,108,77
OTHER,45,111,66
OTHER,23,134,82
OTHER,32,129,88
CAUCASIAN,29,120,69
BLACK,18,122,83
BLACK,33,122,83
BLACK,36,103,68
OTHER,34,98,66
CAUCASIAN,40,176,74
OTHER,38,119,69
CAUCASIAN,36,106,52
OTHER,32,100,67
Unspecified,25,110,70
OTHER,22,109,59
OTHER,24,101,45
OTHER,40,96,63
ASIAN,35,118,74
BLACK,32,109,72
CAUCASIAN,28,121,84
OTHER,40,115,73
CAUCASIAN,32,111,71
OTHER,24,116,76
OTHER,36,122,71
CAUCASIAN,35,129,82
OTHER,35,106,73
OTHER,36,118,85
BLACK,27,107,57
BLACK,27,127,86
CAUCASIAN,24,102,65
CAUCASIAN,35,128,70
BLACK,36,113,76
OTHER,32,103,66
ASIAN,42,116,79
OTHER,18,108,68
CAUCASIAN,40,112,71
OTHER,25,145,66
OTHER,37,102,63
BLACK,23,119,77
CAUCASIAN,28,129,86
BLACK,37,145,80
OTHER,19,102,68
OTHER,21,97,60
OTHER,23,94,60
OTHER,44,132,89
OTHER,44,128,69
OTHER,33,107,71
BLACK,31,108,67
BLACK,23,128,71
CAUCASIAN,31,108,72
CAUCASIAN,33,113,61
CAUCASIAN,29,114,62
BLACK,40,99,51
OTHER,25,121,82
CAUCASIAN,39,124,89
Unspecified,29,134,68
BLACK,30,104,73
CAUCASIAN,35,125,75
CAUCASIAN,29,128,79
OTHER,33,124,78
OTHER,24,103,68
CAUCASIAN,36,110,65
ASIAN,31,116,68
OTHER,29,103,65
OTHER,19,104,62
BLACK,21,125,73
OTHER,34,119,75
CAUCASIAN,30,116,78
CAUCASIAN,25,108,78
OTHER,37,119,81
BLACK,40,123,83
CAUCASIAN,26,110,70
CAUCASIAN,43,116,75
OTHER,25,118,76
CAUCASIAN,38,101,64
BLACK,39,136,89
OTHER,27,118,77
OTHER,36,129,84
OTHER,25,100,66
OTHER,43,113,82
OTHER,22,123,79
OTHER,22,109,66
OTHER,20,128,68
CAUCASIAN,27,128,71
CAUCASIAN,24,119,74
CAUCASIAN,33,141,97
ASIAN,35,99,54
CAUCASIAN,36,120,76
CAUCASIAN,34,115,58
CAUCASIAN,28,138,90
BLACK,37,116,76
OTHER,27,119,79
ASIAN,36,104,64
BLACK,34,110,68
OTHER,47,124,86
OTHER,30,119,76
BLACK,23,128,54
OTHER,30,117,73
OTHER,31,109,63
OTHER,26,124,72
OTHER,39,99,64
OTHER,21,116,79
CAUCASIAN,40,118,78
OTHER,29,103,66
OTHER,39,128,80
BLACK,32,107,67
OTHER,25,115,66
CAUCASIAN,30,125,75
OTHER,37,126,57
OTHER,34,116,82
OTHER,36,127,84
CAUCASIAN,27,131,81
CAUCASIAN,24,115,84
OTHER,25,116,60
OTHER,41,104,68
OTHER,20,110,70
OTHER,18,99,67
CAUCASIAN,19,109,55
OTHER,32,119,76
BLACK,29,144,90
OTHER,33,104,73
OTHER,32,120,84
OTHER,22,117,82
BLACK,22,111,76
OTHER,35,117,75
BLACK,38,116,74
CAUCASIAN,18,115,68
CAUCASIAN,31,128,85
OTHER,27,133,87
OTHER,32,107,73
BLACK,21,138,89
OTHER,23,118,75
OTHER,29,109,68
CAUCASIAN,20,128,82
Unspecified,31,121,75
BLACK,26,122,63
OTHER,32,113,76
OTHER,31,117,63
BLACK,25,110,74
BLACK,42,98,59
BLACK,36,106,67
OTHER,35,109,72
CAUCASIAN,24,130,70
OTHER,27,99,65
OTHER,22,114,79
CAUCASIAN,27,95,59
OTHER,20,103,53
CAUCASIAN,23,112,74
CAUCASIAN,36,115,74
CAUCASIAN,38,109,70
BLACK,35,118,80
BLACK,19,119,67
OTHER,32,125,87
CAUCASIAN,34,121,83
BLACK,33,105,61
CAUCASIAN,25,119,76
CAUCASIAN,37,127,89
OTHER,35,109,57
ASIAN,23,115,58
BLACK,31,102,66
BLACK,26,96,62
OTHER,36,122,80
BLACK,28,132,90
OTHER,32,108,76
CAUCASIAN,28,122,79
ASIAN,32,110,66
ASIAN,43,128,85
BLACK,20,102,55
BLACK,27,114,75
OTHER,25,108,69
ASIAN,25,95,80
Unspecified,23,114,71
OTHER,33,108,71
OTHER,19,112,78
OTHER,31,127,85
ASIAN,28,136,82
CAUCASIAN,31,128,69
ASIAN,33,101,66
OTHER,36,110,68
CAUCASIAN,27,119,81
BLACK,21,128,87
OTHER,29,114,71
Unspecified,32,155,104
CAUCASIAN,38,115,57
OTHER,28,101,66
OTHER,24,117,57
OTHER,25,108,50
OTHER,27,106,69
OTHER,30,111,74
OTHER,23,111,73
CAUCASIAN,34,106,69
BLACK,26,116,68
BLACK,31,139,87
BLACK,32,120,80
BLACK,32,110,62
CAUCASIAN,23,106,66
BLACK,23,137,66
OTHER,29,122,77
CAUCASIAN,37,104,42
CAUCASIAN,32,115,75
OTHER,28,114,82
OTHER,39,120,71
OTHER,31,119,73
CAUCASIAN,35,106,68
ASIAN,32,110,73
OTHER,28,106,83
CAUCASIAN,30,122,78
CAUCASIAN,27,115,66
BLACK,35,151,92
BLACK,30,101,69
BLACK,32,110,64
OTHER,13,92,56
OTHER,24,112,65
BLACK,34,114,70
OTHER,30,127,83
OTHER,42,123,55
ASIAN,35,116,80
OTHER,24,102,45
OTHER,35,117,70
BLACK,31,118,70
BLACK,34,134,83
OTHER,31,100,67
CAUCASIAN,22,100,65
CAUCASIAN,34,115,67
OTHER,43,133,85
OTHER,33,115,78
CAUCASIAN,40,103,82
CAUCASIAN,41,112,74
CAUCASIAN,31,100,59
OTHER,33,123,74
OTHER,41,109,69
CAUCASIAN,36,121,68
CAUCASIAN,37,140,84
OTHER,32,122,80
ASIAN,29,107,61
OTHER,36,130,82
OTHER,38,113,78
ASIAN,32,93,63
OTHER,30,137,72
ASIAN,21,113,73
ASIAN,21,126,77
ASIAN,21,107,64
BLACK,30,111,73
OTHER,30,125,80
OTHER,27,121,74
CAUCASIAN,34,119,74
ASIAN,35,142,82
BLACK,25,124,76
BLACK,27,108,70
BLACK,32,123,80
BLACK,33,128,61
CAUCASIAN,29,114,63
ASIAN,31,110,68
BLACK,31,116,48
CAUCASIAN,36,128,86
,36,147,92
BLACK,31,126,83
CAUCASIAN,36,127,89
CAUCASIAN,39,109,70
BLACK,35,139,78
OTHER,35,106,70
OTHER,27,121,82
ASIAN,31,106,71
OTHER,28,119,79
CAUCASIAN,33,126,79
OTHER,32,103,67
CAUCASIAN,35,143,87
OTHER,28,119,71
CAUCASIAN,36,121,74
CAUCASIAN,23,110,61
CAUCASIAN,31,133,83
CAUCASIAN,34,136,68
BLACK,33,112,67
OTHER,35,127,57
BLACK,31,104,71
OTHER,26,114,77
BLACK,24,128,60
CAUCASIAN,32,100,67
BLACK,28,112,74
CAUCASIAN,31,106,53
OTHER,24,91,53
ASIAN,35,127,74
BLACK,27,121,82
OTHER,27,112,74
OTHER,31,116,73
Unspecified,35,141,76
OTHER,28,94,58
BLACK,32,100,66
CAUCASIAN,37,126,75
BLACK,35,123,69
ASIAN,32,111,70
BLACK,42,126,67
BLACK,37,99,58
OTHER,28,115,74
OTHER,34,121,68
CAUCASIAN,28,96,54
CAUCASIAN,32,110,62
BLACK,29,124,79
CAUCASIAN,32,112,72
CAUCASIAN,39,111,73
OTHER,32,128,62
CAUCASIAN,41,114,77
CAUCASIAN,35,110,71
OTHER,29,92,62
CAUCASIAN,24,120,75
BLACK,32,124,88
BLACK,23,131,82
CAUCASIAN,26,125,81
OTHER,31,107,69
OTHER,33,86,45
OTHER,25,112,72
BLACK,30,121,79
OTHER,36,108,59
CAUCASIAN,40,108,73
CAUCASIAN,29,117,73
OTHER,31,110,80
OTHER,25,113,72
OTHER,26,113,59
CAUCASIAN,34,102,59
OTHER,38,95,66
BLACK,28,122,80
CAUCASIAN,31,118,78
BLACK,33,110,70
ASIAN,38,113,76
OTHER,33,126,84
CAUCASIAN,36,120,80
BLACK,36,100,66
CAUCASIAN,33,90,66
CAUCASIAN,30,133,89
CAUCASIAN,32,118,70
BLACK,32,119,72
OTHER,27,113,75
OTHER,31,119,76
OTHER,22,141,71
OTHER,24,120,75
OTHER,32,110,87
CAUCASIAN,24,98,53
CAUCASIAN,23,114,55
OTHER,23,113,75
OTHER,40,126,71
CAUCASIAN,32,119,74
OTHER,35,109,51
OTHER,27,118,70
OTHER,29,120,76
CAUCASIAN,34,125,72
CAUCASIAN,27,124,74
OTHER,34,149,81
ASIAN,39,142,81
OTHER,35,117,76
OTHER,20,132,69
CAUCASIAN,20,118,75
OTHER,38,120,77
OTHER,35,114,79
CAUCASIAN,34,104,66
OTHER,29,91,56
CAUCASIAN,31,128,84
CAUCASIAN,34,118,78
OTHER,28,116,62
OTHER,35,100,66
CAUCASIAN,31,103,48
OTHER,36,110,69
BLACK,32,95,50
ASIAN,34,110,61
OTHER,22,121,67
ASIAN,40,121,82
CAUCASIAN,32,130,90
CAUCASIAN,33,118,80
BLACK,25,97,64
ASIAN,26,135,81
ASIAN,30,108,68
ASIAN,32,116,76
CAUCASIAN,41,127,76
OTHER,36,110,70
CAUCASIAN,33,125,78
OTHER,31,101,61
OTHER,28,122,81
OTHER,34,106,72
ASIAN,38,101,66
BLACK,29,102,62
BLACK,34,112,62
CAUCASIAN,34,127,79
BLACK,38,131,84
OTHER,28,97,64
CAUCASIAN,40,112,68
BLACK,28,106,61
BLACK,32,122,71
OTHER,34,127,77
ASIAN,42,104,63
OTHER,27,127,77
CAUCASIAN,30,113,56
CAUCASIAN,26,136,77
OTHER,17,92,38
CAUCASIAN,31,119,74
OTHER,37,123,62
CAUCASIAN,33,126,80
CAUCASIAN,38,114,77
OTHER,27,155,98
CAUCASIAN,33,141,85
CAUCASIAN,33,132,82
OTHER,24,112,75
OTHER,35,127,80
OTHER,22,128,76
OTHER,37,108,69
OTHER,25,119,72
OTHER,24,142,82
CAUCASIAN,40,104,64
OTHER,32,103,58
CAUCASIAN,36,149,98
CAUCASIAN,32,119,79
CAUCASIAN,33,105,73
ASIAN,31,124,80
ASIAN,31,125,82
ASIAN,31,117,77
ASIAN,29,108,73
OTHER,28,122,65
BLACK,28,124,77
CAUCASIAN,34,128,66
CAUCASIAN,31,111,72
CAUCASIAN,34,128,78
ASIAN,37,92,51
OTHER,25,115,76
OTHER,29,111,67
ASIAN,40,112,72
OTHER,25,124,81
ASIAN,24,116,77
OTHER,27,133,74
CAUCASIAN,34,129,92
CAUCASIAN,34,141,95
CAUCASIAN,32,112,72
CAUCASIAN,34,117,79
CAUCASIAN,32,123,79
BLACK,27,116,82
CAUCASIAN,33,127,63
CAUCASIAN,36,135,88
ASIAN,27,108,61
CAUCASIAN,33,113,73
OTHER,21,99,65
BLACK,32,113,50
OTHER,24,113,77
CAUCASIAN,31,130,69
OTHER,31,92,59
OTHER,29,102,63
CAUCASIAN,34,105,69
OTHER,25,116,73
OTHER,29,122,77
ASIAN,32,118,81
ASIAN,29,111,67
OTHER,33,103,63
BLACK,24,108,75
CAUCASIAN,37,103,70
ASIAN,41,128,85
ASIAN,33,93,65
OTHER,27,109,86
OTHER,27,102,61
OTHER,35,128,92
CAUCASIAN,24,122,84
CAUCASIAN,35,112,71
OTHER,34,105,78
BLACK,31,105,53
CAUCASIAN,36,109,70
CAUCASIAN,32,107,62
CAUCASIAN,34,106,65
CAUCASIAN,29,114,80
OTHER,38,116,74
OTHER,19,101,68
BLACK,23,131,89
ASIAN,29,133,88
ASIAN,40,122,81
OTHER,19,112,78
CAUCASIAN,27,103,68
OTHER,36,97,61
OTHER,37,118,69
OTHER,33,113,77
OTHER,36,119,67
CAUCASIAN,35,102,75
ASIAN,33,143,88
BLACK,44,126,80
CAUCASIAN,36,110,77
CAUCASIAN,27,140,76
ASIAN,32,103,72
CAUCASIAN,33,140,76
CAUCASIAN,30,115,67
CAUCASIAN,32,117,68
OTHER,26,102,68
ASIAN,31,97,66
CAUCASIAN,34,138,91
OTHER,31,125,71
ASIAN,31,133,95
BLACK,25,105,56
CAUCASIAN,39,127,61
OTHER,32,120,80
ASIAN,34,107,71
Unspecified,39,165,94
ASIAN,27,111,75
OTHER,36,133,80
OTHER,33,104,64
OTHER,32,116,75
CAUCASIAN,30,128,85
CAUCASIAN,26,97,66
OTHER,28,99,64
BLACK,19,137,85
CAUCASIAN,34,118,72
BLACK,35,114,72
CAUCASIAN,30,125,79
OTHER,33,100,58
OTHER,26,103,69
ASIAN,31,105,59
CAUCASIAN,29,130,94
OTHER,19,114,60
OTHER,26,106,72
BLACK,37,108,68
OTHER,33,147,76
OTHER,42,134,76
ASIAN,29,132,75
CAUCASIAN,23,128,75
CAUCASIAN,29,121,85
CAUCASIAN,34,106,64
OTHER,28,115,77
Unspecified,29,125,82
ASIAN,34,94,57
CAUCASIAN,30,104,66
CAUCASIAN,30,122,68
OTHER,33,97,71
ASIAN,27,104,71
CAUCASIAN,22,120,63
ASIAN,35,134,76
CAUCASIAN,26,110,71
CAUCASIAN,35,141,82
CAUCASIAN,24,97,60
OTHER,33,98,62
OTHER,35,105,69
OTHER,33,127,76
CAUCASIAN,30,118,70
OTHER,18,143,89
BLACK,38,136,75
BLACK,35,120,60
OTHER,25,101,69
OTHER,19,108,71
CAUCASIAN,31,135,80
OTHER,36,130,79
BLACK,20,107,70
ASIAN,32,121,80
CAUCASIAN,31,128,85
CAUCASIAN,32,121,82
OTHER,27,139,83
CAUCASIAN,35,137,82
BLACK,38,97,57
CAUCASIAN,39,123,78
OTHER,32,140,79
OTHER,34,113,71
CAUCASIAN,40,93,71
CAUCASIAN,29,110,73
CAUCASIAN,18,147,89
BLACK,27,108,55
OTHER,30,93,52
ASIAN,30,110,69
CAUCASIAN,36,132,87
BLACK,31,137,92
OTHER,38,130,81
CAUCASIAN,29,140,71
ASIAN,36,115,71
CAUCASIAN,32,100,63
BLACK,39,144,70
CAUCASIAN,33,97,51
OTHER,33,86,51
ASIAN,32,111,74
CAUCASIAN,25,129,72
CAUCASIAN,30,105,69
CAUCASIAN,32,125,80
CAUCASIAN,32,115,83
OTHER,29,113,58
CAUCASIAN,33,109,58
OTHER,34,105,62
OTHER,20,122,80
OTHER,25,96,66
OTHER,33,123,78
ASIAN,25,115,75
CAUCASIAN,27,112,66
OTHER,37,100,68
CAUCASIAN,30,111,74
BLACK,32,97,61
OTHER,32,120,77
ASIAN,34,91,43
OTHER,39,102,66
OTHER,42,100,64
OTHER,39,117,59
OTHER,26,113,74
OTHER,25,123,62
BLACK,39,113,76
BLACK,34,112,68
OTHER,30,117,90
CAUCASIAN,32,109,71
BLACK,28,116,70
OTHER,28,98,63
BLACK,38,117,71
OTHER,33,92,61
OTHER,31,115,56
BLACK,26,133,81
CAUCASIAN,39,117,75
OTHER,28,146,83
OTHER,42,109,55
CAUCASIAN,38,96,63
BLACK,30,140,67
ASIAN,30,116,80
OTHER,31,115,53
OTHER,32,106,73
CAUCASIAN,27,122,82
OTHER,21,106,70
ASIAN,36,123,79
CAUCASIAN,28,137,86
CAUCASIAN,30,111,71
Unspecified,38,119,76
OTHER,42,105,64
ASIAN,31,111,61
ASIAN,31,119,76
OTHER,35,107,56
OTHER,35,118,76
OTHER,32,120,74
OTHER,41,108,70
OTHER,28,106,71
BLACK,32,122,93
OTHER,30,124,69
ASIAN,36,96,67
OTHER,21,112,56
OTHER,38,104,71
CAUCASIAN,30,111,80
ASIAN,35,112,72
CAUCASIAN,25,113,80
CAUCASIAN,24,110,64
CAUCASIAN,31,116,73
BLACK,26,105,70
OTHER,35,118,95
OTHER,38,117,75
OTHER,34,110,76
OTHER,32,114,61
ASIAN,29,110,71
ASIAN,26,107,75
ASIAN,36,146,92
OTHER,34,106,73
CAUCASIAN,31,100,66
OTHER,28,115,76
ASIAN,37,106,68
OTHER,33,116,79
CAUCASIAN,33,129,77
BLACK,29,120,74
CAUCASIAN,27,118,82
OTHER,34,125,82
BLACK,22,107,71
CAUCASIAN,28,108,61
CAUCASIAN,33,124,75
CAUCASIAN,33,117,68
CAUCASIAN,39,118,67
CAUCASIAN,31,133,89
OTHER,23,121,61
CAUCASIAN,36,110,72
OTHER,24,114,72
OTHER,28,113,73
ASIAN,37,110,74
ASIAN,28,118,80
BLACK,33,109,66
CAUCASIAN,36,90,58
CAUCASIAN,30,102,63
OTHER,30,133,74
CAUCASIAN,30,121,83
OTHER,32,105,68
OTHER,23,118,83
OTHER,27,116,68
OTHER,24,141,81
OTHER,27,112,73
ASIAN,30,119,75
OTHER,23,93,59
BLACK,28,127,86
OTHER,27,129,68
CAUCASIAN,33,134,68
OTHER,40,108,80
OTHER,25,135,58
OTHER,21,114,72
OTHER,36,131,77
CAUCASIAN,32,114,76
BLACK,22,126,81
ASIAN,27,117,67
BLACK,29,120,57
CAUCASIAN,32,111,74
CAUCASIAN,40,123,67
OTHER,24,114,71
CAUCASIAN,30,109,74
OTHER,18,115,68
BLACK,35,118,81
OTHER,27,117,71
OTHER,29,104,67
CAUCASIAN,38,109,72
BLACK,38,141,86
OTHER,31,127,83
OTHER,32,133,87
CAUCASIAN,36,106,59
OTHER,31,118,68
CAUCASIAN,33,112,78
BLACK,33,94,56
CAUCASIAN,31,115,74
CAUCASIAN,35,109,77
BLACK,31,130,87
OTHER,30,99,62
OTHER,41,115,59
CAUCASIAN,31,127,73
OTHER,31,96,84
CAUCASIAN,35,97,67
BLACK,23,101,52
OTHER,33,118,66
CAUCASIAN,20,113,60
CAUCASIAN,38,124,74
CAUCASIAN,32,99,58
OTHER,25,106,69
CAUCASIAN,32,108,72
CAUCASIAN,29,116,68
CAUCASIAN,32,125,72
BLACK,24,111,78
CAUCASIAN,16,138,76
CAUCASIAN,34,121,67
OTHER,24,127,84
OTHER,28,115,70
OTHER,29,80,54
CAUCASIAN,40,116,73
OTHER,24,114,74
OTHER,35,108,73
OTHER,26,107,72
CAUCASIAN,31,126,74
OTHER,26,109,69
CAUCASIAN,29,116,80
CAUCASIAN,34,115,59
ASIAN,32,118,74
OTHER,29,127,85
CAUCASIAN,34,117,86
CAUCASIAN,33,112,61
CAUCASIAN,27,122,66
OTHER,31,121,80
CAUCASIAN,34,134,82
CAUCASIAN,37,97,52
CAUCASIAN,18,108,53
CAUCASIAN,36,115,65
BLACK,38,99,71
CAUCASIAN,35,115,75
CAUCASIAN,25,128,83
ASIAN,29,115,81
OTHER,28,127,77
ASIAN,30,110,74
OTHER,27,129,84
OTHER,27,117,65
OTHER,26,106,64
CAUCASIAN,33,113,76
OTHER,25,104,69
BLACK,25,108,64
OTHER,37,121,87
BLACK,37,119,76
OTHER,34,122,76
BLACK,32,130,87
ASIAN,35,131,82
OTHER,34,120,71
OTHER,38,120,73
OTHER,28,127,113
BLACK,32,123,80
CAUCASIAN,35,99,59
CAUCASIAN,18,104,54
CAUCASIAN,34,116,75
OTHER,27,110,71
OTHER,38,128,84
BLACK,34,100,70
BLACK,28,122,84
OTHER,25,122,74
OTHER,29,101,67
CAUCASIAN,31,119,63
OTHER,34,120,70
CAUCASIAN,34,126,71
BLACK,39,108,71
CAUCASIAN,41,117,71
CAUCASIAN,34,103,64
CAUCASIAN,39,122,70
CAUCASIAN,31,99,62
OTHER,38,118,79
CAUCASIAN,33,107,69
OTHER,28,96,64
OTHER,19,97,61
CAUCASIAN,26,132,86
BLACK,25,114,75
OTHER,28,102,60
OTHER,33,112,73
OTHER,27,117,63
OTHER,33,128,74
BLACK,26,133,86
BLACK,28,134,85
CAUCASIAN,25,126,73
OTHER,23,115,75
CAUCASIAN,15,105,66
OTHER,23,110,79
OTHER,20,104,67
OTHER,37,100,60
OTHER,26,110,73
BLACK,40,133,82
OTHER,38,103,73
ASIAN,32,107,61
CAUCASIAN,29,93,55
OTHER,33,106,66
OTHER,27,113,72
CAUCASIAN,35,108,71
OTHER,19,109,73
CAUCASIAN,33,129,78
BLACK,34,98,64
OTHER,33,106,67
CAUCASIAN,28,131,82
ASIAN,32,99,61
OTHER,24,117,77
OTHER,42,93,62
OTHER,34,137,80
CAUCASIAN,38,116,72
OTHER,37,125,80
OTHER,26,108,69
CAUCASIAN,33,107,73
BLACK,32,126,81
BLACK,21,110,64
CAUCASIAN,25,115,73
OTHER,33,124,77
OTHER,32,106,52
OTHER,24,100,67
CAUCASIAN,21,110,80
CAUCASIAN,30,115,68
OTHER,34,105,70
BLACK,25,129,83
OTHER,30,113,69
OTHER,36,115,74
OTHER,28,124,77
ASIAN,29,104,71
CAUCASIAN,25,130,82
OTHER,27,117,72
OTHER,34,107,68
OTHER,19,98,55
CAUCASIAN,46,125,76
OTHER,27,132,80
OTHER,20,107,69
OTHER,22,122,83
OTHER,29,97,65
CAUCASIAN,28,125,80
CAUCASIAN,31,120,82
OTHER,28,105,63
OTHER,25,141,81
ASIAN,30,130,81
OTHER,26,92,60
OTHER,34,102,64
OTHER,28,120,80
CAUCASIAN,33,124,70
Unspecified,30,117,64
OTHER,37,116,64
CAUCASIAN,30,122,72
OTHER,26,94,57
OTHER,38,129,64
CAUCASIAN,36,125,66
CAUCASIAN,31,123,86
OTHER,26,106,64
CAUCASIAN,37,127,67
OTHER,26,126,74
OTHER,23,144,108
Unspecified,30,113,68
ASIAN,36,99,57
OTHER,32,121,81
OTHER,27,92,62
OTHER,19,108,73
OTHER,35,124,79
OTHER,36,146,79
OTHER,35,119,87
CAUCASIAN,34,129,87
OTHER,32,108,66
OTHER,35,110,60
OTHER,20,121,74
CAUCASIAN,28,109,69
ASIAN,31,96,61
BLACK,26,132,83
CAUCASIAN,32,113,73
CAUCASIAN,31,118,74
OTHER,34,119,80
OTHER,30,123,66
OTHER,30,107,72
OTHER,19,120,74
OTHER,33,92,61
OTHER,34,116,75
CAUCASIAN,25,117,87
OTHER,34,99,65
OTHER,35,117,86
OTHER,34,107,67
CAUCASIAN,29,145,88
OTHER,19,108,72
OTHER,33,115,80
OTHER,18,122,78
OTHER,33,133,83
CAUCASIAN,31,124,62
CAUCASIAN,25,118,77
CAUCASIAN,22,132,71
OTHER,21,124,70
CAUCASIAN,30,113,72
OTHER,34,138,83
CAUCASIAN,28,116,87
CAUCASIAN,34,129,77
OTHER,20,99,61
OTHER,33,120,83
ASIAN,35,94,62
OTHER,28,108,68
OTHER,28,127,66
OTHER,24,102,69
CAUCASIAN,35,112,66
ASIAN,33,125,86
OTHER,30,98,67
OTHER,28,114,79
OTHER,31,114,74
OTHER,22,103,42
OTHER,27,123,83
Unspecified,34,117,78
CAUCASIAN,29,97,64
CAUCASIAN,33,106,68
OTHER,29,115,75
ASIAN,27,101,65
CAUCASIAN,26,110,79
CAUCASIAN,31,108,70
OTHER,20,137,90
CAUCASIAN,38,139,94
OTHER,32,97,66
OTHER,24,128,77
OTHER,30,111,66
BLACK,38,100,63
OTHER,21,119,70
OTHER,35,130,83
OTHER,32,127,82
OTHER,32,102,63
OTHER,32,108,51
BLACK,33,86,52
CAUCASIAN,39,115,77
CAUCASIAN,30,115,76
CAUCASIAN,33,114,65
CAUCASIAN,29,108,70
OTHER,29,112,75
CAUCASIAN,34,120,73
OTHER,29,105,69
OTHER,22,113,73
BLACK,17,138,88
OTHER,25,90,54
CAUCASIAN,25,117,74
OTHER,27,108,72
CAUCASIAN,25,127,69
CAUCASIAN,32,115,63
CAUCASIAN,38,131,78
OTHER,25,129,82
OTHER,32,112,68
ASIAN,36,103,69
CAUCASIAN,18,111,77
CAUCASIAN,35,98,61
OTHER,41,119,76
OTHER,21,109,70
OTHER,33,111,67
OTHER,24,113,78
Unspecified,37,111,67
ASIAN,30,135,75
OTHER,25,127,84
ASIAN,33,111,73
ASIAN,29,103,66
ASIAN,39,113,77
CAUCASIAN,26,111,70
OTHER,19,130,73
CAUCASIAN,33,95,63
OTHER,36,97,57
OTHER,33,111,75
CAUCASIAN,33,112,63
ASIAN,31,120,67
BLACK,31,122,64
OTHER,37,129,83
OTHER,24,94,62
OTHER,34,111,74
OTHER,21,106,72
OTHER,16,136,73
BLACK,28,119,68
BLACK,39,114,77
CAUCASIAN,36,116,75
OTHER,24,109,69
OTHER,35,116,69
OTHER,14,114,75
BLACK,25,134,66
Unspecified,30,133,81
BLACK,30,107,67
OTHER,29,104,70
OTHER,22,115,65
CAUCASIAN,37,121,70
OTHER,24,121,78
CAUCASIAN,37,103,66
ASIAN,31,111,62
,29,116,84
OTHER,25,108,65
OTHER,32,136,102
CAUCASIAN,25,111,80
OTHER,28,113,70
ASIAN,33,112,64
OTHER,32,107,68
OTHER,26,121,70
CAUCASIAN,30,145,92
OTHER,20,102,67
ASIAN,35,159,85
CAUCASIAN,29,93,57
OTHER,27,89,57
OTHER,34,106,67
CAUCASIAN,30,119,81
ASIAN,23,117,58
ASIAN,28,117,68
CAUCASIAN,37,111,67
OTHER,33,124,82
CAUCASIAN,35,94,78
CAUCASIAN,33,128,84
OTHER,34,133,83
OTHER,24,107,64
OTHER,26,143,91
OTHER,24,111,77
CAUCASIAN,32,117,59
OTHER,35,111,66
ASIAN,31,100,68
CAUCASIAN,31,135,80
OTHER,19,136,83
OTHER,29,119,80
OTHER,28,105,67
OTHER,27,111,70
CAUCASIAN,35,104,69
CAUCASIAN,31,125,75
OTHER,34,113,70
CAUCASIAN,28,105,66
OTHER,30,116,64
CAUCASIAN,37,107,71
OTHER,33,105,68
OTHER,25,115,59
OTHER,20,146,100
ASIAN,31,96,62
OTHER,29,137,80
BLACK,33,119,67
OTHER,21,104,68
OTHER,39,120,74
OTHER,21,121,78
OTHER,27,124,83
CAUCASIAN,34,98,66
OTHER,23,119,82
CAUCASIAN,27,121,75
OTHER,40,99,65
OTHER,24,122,70
OTHER,33,119,77
BLACK,33,102,71
OTHER,32,121,70
CAUCASIAN,27,142,63
OTHER,16,135,80
CAUCASIAN,36,100,66
CAUCASIAN,35,127,80
ASIAN,31,100,65
BLACK,27,99,62
OTHER,30,100,64
ASIAN,35,114,75
OTHER,32,107,69
CAUCASIAN,34,106,68
OTHER,29,105,68
CAUCASIAN,27,110,46
OTHER,26,112,64
BLACK,35,93,48
Unspecified,26,104,69
OTHER,31,116,68
ASIAN,35,110,77
CAUCASIAN,35,103,66
OTHER,27,106,66
ASIAN,44,139,85
OTHER,29,107,83
OTHER,28,125,66
ASIAN,32,121,76
OTHER,27,115,75
Unspecified,25,120,68
BLACK,31,106,63
ASIAN,40,102,71
OTHER,24,101,64
BLACK,32,117,62
OTHER,36,102,47
BLACK,30,96,57
OTHER,23,112,68
CAUCASIAN,32,103,67
OTHER,29,129,87
OTHER,35,105,79
CAUCASIAN,36,118,89
OTHER,30,131,82
OTHER,26,114,76
BLACK,25,110,71
ASIAN,31,95,59
BLACK,35,117,73
BLACK,36,110,51
ASIAN,31,118,78
CAUCASIAN,18,108,73
OTHER,36,132,71
OTHER,31,120,82
OTHER,20,122,71
ASIAN,30,116,62
OTHER,25,107,71
OTHER,24,134,69
OTHER,32,114,75
ASIAN,29,137,72
ASIAN,30,105,57
OTHER,33,126,71
ASIAN,28,107,71
BLACK,30,132,103
CAUCASIAN,33,121,73
,23,116,68
BLACK,31,109,57
CAUCASIAN,30,125,83
BLACK,34,127,77
CAUCASIAN,31,116,62
CAUCASIAN,19,118,74
ASIAN,34,105,70
BLACK,25,124,70
BLACK,31,106,61
CAUCASIAN,35,122,68
BLACK,37,126,79
OTHER,33,100,62
CAUCASIAN,32,139,79
CAUCASIAN,30,114,68
CAUCASIAN,33,110,66
OTHER,26,111,74
OTHER,27,108,75
CAUCASIAN,27,121,81
CAUCASIAN,28,109,64
OTHER,27,119,80
CAUCASIAN,33,116,78
OTHER,32,133,93
CAUCASIAN,30,114,65
ASIAN,32,122,77
CAUCASIAN,28,115,64
OTHER,40,117,65
OTHER,26,110,75
CAUCASIAN,34,117,85
OTHER,26,119,73
OTHER,29,104,67
OTHER,36,117,70
OTHER,23,109,53
OTHER,28,113,73
ASIAN,31,104,72
CAUCASIAN,32,118,78
OTHER,28,135,89
OTHER,30,131,83
OTHER,22,129,82
OTHER,24,118,76
CAUCASIAN,21,102,67
OTHER,27,129,65
OTHER,30,106,68
OTHER,30,109,70
OTHER,29,97,61
OTHER,29,125,81
OTHER,28,130,87
OTHER,23,120,76
CAUCASIAN,30,111,70
CAUCASIAN,26,120,86
OTHER,35,135,77
OTHER,24,97,62
OTHER,29,114,63
OTHER,27,111,73
OTHER,26,112,71
OTHER,37,122,79
OTHER,41,110,64
OTHER,21,109,67
CAUCASIAN,33,113,77
OTHER,23,101,64
OTHER,31,124,84
OTHER,26,134,82
OTHER,36,116,81
OTHER,27,109,70
OTHER,37,97,67
CAUCASIAN,34,121,80
OTHER,26,99,65
OTHER,21,98,61
OTHER,27,118,80
OTHER,25,106,73
CAUCASIAN,31,108,70
CAUCASIAN,32,118,79
OTHER,28,127,85
OTHER,34,119,81
OTHER,24,130,80
OTHER,26,114,64
OTHER,23,127,62
OTHER,34,108,70
OTHER,37,118,77
CAUCASIAN,35,100,64
OTHER,20,115,73
OTHER,24,108,74
CAUCASIAN,37,107,55
OTHER,22,109,69
OTHER,26,55,38
OTHER,27,95,79
OTHER,21,113,69
BLACK,35,107,57
ASIAN,31,97,61
OTHER,37,102,73
OTHER,21,148,99
OTHER,22,109,70
CAUCASIAN,29,133,81
OTHER,23,106,67
Unspecified,29,118,79
OTHER,29,109,73
OTHER,25,99,64
CAUCASIAN,31,129,79
OTHER,38,105,57
CAUCASIAN,25,105,66
OTHER,28,104,70
BLACK,35,108,70
CAUCASIAN,30,103,63
BLACK,22,127,82
OTHER,18,106,66
CAUCASIAN,32,117,78
OTHER,29,93,62
OTHER,35,120,69
OTHER,23,145,87
OTHER,30,107,71
BLACK,35,130,86
CAUCASIAN,37,114,53
OTHER,24,113,71
OTHER,33,123,77
CAUCASIAN,32,140,79
OTHER,30,121,82
OTHER,29,117,78
CAUCASIAN,37,121,71
OTHER,29,110,68
BLACK,27,113,73
OTHER,22,82,41
OTHER,25,109,73
OTHER,27,117,72
BLACK,29,112,74
BLACK,34,132,79
OTHER,26,104,66
OTHER,33,114,81
CAUCASIAN,18,109,66
OTHER,19,100,65
OTHER,22,104,67
CAUCASIAN,24,126,69
BLACK,24,127,67
OTHER,28,140,75
OTHER,28,109,84
BLACK,44,131,83
OTHER,30,102,55
OTHER,25,109,71
CAUCASIAN,22,114,64
BLACK,27,92,58
OTHER,27,119,79
BLACK,27,122,70
CAUCASIAN,32,119,64
OTHER,38,127,81
ASIAN,31,107,64
ASIAN,36,116,69
CAUCASIAN,28,108,75
OTHER,30,108,71
OTHER,23,108,65
CAUCASIAN,38,94,53
ASIAN,34,115,65
BLACK,17,125,74
OTHER,35,130,67
OTHER,24,117,75
OTHER,26,101,57
OTHER,17,118,68
OTHER,21,127,83
CAUCASIAN,24,106,49
OTHER,22,120,82
ASIAN,25,120,61
CAUCASIAN,20,113,73
OTHER,32,110,70
CAUCASIAN,17,119,62
OTHER,37,160,105
OTHER,26,108,70
OTHER,40,96,60
OTHER,29,121,72
CAUCASIAN,30,110,76
OTHER,27,121,82
BLACK,32,119,76
OTHER,33,111,73
OTHER,41,101,70
OTHER,34,96,53
OTHER,25,102,65
OTHER,22,100,67
OTHER,18,108,73
OTHER,25,114,76
OTHER,22,106,62
OTHER,30,117,71
OTHER,24,106,72
OTHER,18,119,67
OTHER,33,104,59
CAUCASIAN,28,113,57
CAUCASIAN,30,99,64
BLACK,30,114,72
OTHER,33,128,78
OTHER,28,105,60
OTHER,22,114,74
OTHER,30,124,81
OTHER,18,116,74
OTHER,31,113,74
OTHER,37,114,76
OTHER,22,106,86
OTHER,28,112,62
OTHER,38,123,76
CAUCASIAN,32,117,75
ASIAN,24,104,73
OTHER,21,117,77
ASIAN,27,107,70
OTHER,25,114,70
OTHER,31,100,63
BLACK,36,116,71
CAUCASIAN,25,124,79
ASIAN,36,128,77
CAUCASIAN,34,119,81
CAUCASIAN,30,101,64
CAUCASIAN,32,107,75
BLACK,35,121,77
CAUCASIAN,34,110,85
OTHER,36,83,55
OTHER,21,101,67
CAUCASIAN,24,93,58
CAUCASIAN,32,105,66
OTHER,30,104,68
OTHER,32,97,63
OTHER,25,97,63
OTHER,23,106,64
OTHER,23,109,73
OTHER,33,115,64
OTHER,26,114,76
OTHER,21,92,55
OTHER,29,139,90
ASIAN,26,115,79
CAUCASIAN,27,122,86
OTHER,27,117,73
ASIAN,30,122,71
OTHER,29,138,92
OTHER,27,118,60
OTHER,34,116,73
CAUCASIAN,28,123,81
OTHER,22,126,70
CAUCASIAN,19,120,54
CAUCASIAN,29,131,78
OTHER,36,106,59
CAUCASIAN,31,93,67
OTHER,30,130,85
OTHER,18,109,73
OTHER,20,113,70
OTHER,28,107,74
OTHER,36,116,77
CAUCASIAN,29,108,68
OTHER,32,107,70
OTHER,25,117,72
OTHER,24,111,76
OTHER,20,101,64
CAUCASIAN,32,127,79
OTHER,29,92,57
OTHER,34,93,57
OTHER,28,109,76
OTHER,25,114,75
OTHER,25,102,64
OTHER,29,92,53
OTHER,26,101,66
OTHER,38,102,70
CAUCASIAN,30,106,69
CAUCASIAN,39,125,79
OTHER,29,108,63
CAUCASIAN,19,107,64
OTHER,27,89,57
OTHER,36,127,75
ASIAN,32,116,79
OTHER,33,108,62
OTHER,26,135,72
OTHER,19,122,79
OTHER,27,107,75
OTHER,29,131,82
OTHER,35,115,62
OTHER,25,147,95
OTHER,18,136,84
OTHER,27,106,67
OTHER,24,110,75
OTHER,26,113,73
OTHER,36,124,77
OTHER,24,104,61
OTHER,37,115,73
OTHER,22,115,75
Unspecified,32,122,67
OTHER,23,100,66
OTHER,29,120,65
OTHER,36,108,67
OTHER,29,121,76
BLACK,33,132,92
OTHER,23,103,65
OTHER,23,127,69
OTHER,20,107,64
OTHER,23,103,68
OTHER,24,106,67
OTHER,23,131,85
CAUCASIAN,28,111,69
CAUCASIAN,17,121,70
CAUCASIAN,29,115,44
BLACK,30,117,62
CAUCASIAN,22,114,80
BLACK,24,117,77
ASIAN,24,92,60
OTHER,25,117,59
OTHER,18,122,62
OTHER,20,111,75
BLACK,26,137,86
CAUCASIAN,22,115,76
BLACK,30,113,67
OTHER,18,128,64
OTHER,31,124,76
CAUCASIAN,26,146,88
OTHER,30,126,72
OTHER,32,127,73
OTHER,33,106,71
BLACK,35,106,71
OTHER,21,131,74
OTHER,28,135,88
OTHER,19,124,74
OTHER,27,135,82
OTHER,30,98,68
OTHER,37,115,76
OTHER,29,110,68
OTHER,24,96,61
OTHER,36,102,61
OTHER,28,111,78
OTHER,22,113,73
OTHER,20,144,83
OTHER,27,113,72
OTHER,22,112,58
OTHER,28,101,69
OTHER,37,130,87
OTHER,27,116,73
OTHER,27,106,69
BLACK,28,131,86
BLACK,29,105,64
OTHER,32,107,73
BLACK,29,130,72
ASIAN,33,100,67
OTHER,25,129,73
OTHER,20,111,76
BLACK,32,107,77
BLACK,30,114,70
BLACK,25,97,63
ASIAN,23,126,82
BLACK,29,119,69
CAUCASIAN,36,114,74
CAUCASIAN,33,105,75
BLACK,33,119,81
OTHER,24,120,76
CAUCASIAN,36,109,65
OTHER,23,145,87
CAUCASIAN,35,102,57
OTHER,39,131,74
BLACK,25,103,60
OTHER,24,133,80
CAUCASIAN,37,116,76
OTHER,31,108,72
OTHER,27,109,72
CAUCASIAN,37,108,71
OTHER,25,100,63
OTHER,22,104,70
OTHER,32,102,64
OTHER,22,101,66
BLACK,24,136,92
OTHER,37,104,58
ASIAN,36,96,63
CAUCASIAN,31,98,67
BLACK,22,99,64
CAUCASIAN,28,135,86
ASIAN,33,100,66
OTHER,34,113,70
OTHER,37,116,78
CAUCASIAN,25,125,80
OTHER,26,97,60
CAUCASIAN,26,111,71
BLACK,25,157,110
OTHER,23,113,76
CAUCASIAN,26,98,64
BLACK,35,124,84
OTHER,23,117,60
OTHER,23,117,65
OTHER,26,128,81
OTHER,23,117,82
BLACK,38,126,72
BLACK,39,126,78
CAUCASIAN,24,120,73
OTHER,30,101,69
OTHER,23,108,72
OTHER,29,128,71
BLACK,28,125,86
CAUCASIAN,25,101,62
CAUCASIAN,32,99,59
CAUCASIAN,36,132,79
OTHER,22,102,61
OTHER,32,113,72
ASIAN,29,106,72
OTHER,19,110,75
OTHER,25,115,75
CAUCASIAN,32,110,75
OTHER,42,108,70
OTHER,32,119,72
BLACK,24,110,69
CAUCASIAN,31,114,67
OTHER,33,109,72
OTHER,25,105,70
OTHER,36,117,84
ASIAN,38,101,67
OTHER,26,137,83
OTHER,31,117,62
CAUCASIAN,30,124,85
ASIAN,28,112,75
ASIAN,24,94,64
OTHER,25,117,66
CAUCASIAN,31,131,78
BLACK,28,133,79
OTHER,25,126,77
OTHER,24,101,68
BLACK,34,116,69
OTHER,33,138,82
BLACK,29,161,86
CAUCASIAN,27,111,71
Unspecified,33,112,72
CAUCASIAN,23,117,77
CAUCASIAN,22,109,64
OTHER,31,92,50
OTHER,40,132,78
CAUCASIAN,29,92,55
OTHER,28,121,85
CAUCASIAN,23,113,71
CAUCASIAN,28,94,66
CAUCASIAN,32,120,106
OTHER,19,103,66
OTHER,21,124,79
OTHER,22,102,55
OTHER,22,93,54
BLACK,30,103,68
ASIAN,32,110,66
CAUCASIAN,34,117,76
OTHER,22,117,72
OTHER,22,95,60
OTHER,33,105,69
OTHER,35,83,62
BLACK,32,130,87
OTHER,28,106,69
OTHER,20,112,76
OTHER,31,118,64
OTHER,32,108,68
ASIAN,31,89,45
OTHER,23,114,76
OTHER,28,122,77
OTHER,28,122,77
,23,125,83
OTHER,23,123,102
CAUCASIAN,28,98,64
OTHER,28,112,83
OTHER,19,114,68
OTHER,26,94,61
CAUCASIAN,37,97,64
CAUCASIAN,23,113,62
BLACK,32,98,53
OTHER,20,118,62
OTHER,26,117,55
OTHER,31,113,70
CAUCASIAN,35,142,80
OTHER,35,131,83
CAUCASIAN,25,122,66
CAUCASIAN,33,95,56
BLACK,23,105,66
OTHER,24,113,64
CAUCASIAN,32,116,78
ASIAN,28,90,54
BLACK,34,103,68
OTHER,24,127,78
CAUCASIAN,28,125,83
CAUCASIAN,28,99,65
CAUCASIAN,39,96,60
CAUCASIAN,25,114,81
OTHER,26,122,68
BLACK,34,127,86
CAUCASIAN,26,131,80
CAUCASIAN,27,108,68
ASIAN,35,118,83
BLACK,35,150,90
OTHER,34,105,67
ASIAN,35,117,83
OTHER,26,100,65
ASIAN,29,107,69
OTHER,24,124,80
OTHER,30,114,77
OTHER,21,121,70
CAUCASIAN,29,119,76
ASIAN,33,109,70
CAUCASIAN,28,137,86
OTHER,20,150,70
OTHER,25,116,70
BLACK,23,110,74
BLACK,36,129,81
OTHER,20,129,87
CAUCASIAN,31,110,66
OTHER,20,119,77
CAUCASIAN,27,109,72
BLACK,38,120,78
OTHER,21,103,70
OTHER,22,97,59
CAUCASIAN,23,138,68
Unspecified,23,108,70
ASIAN,26,105,50
OTHER,28,123,72
BLACK,35,108,69
OTHER,29,117,76
CAUCASIAN,21,114,62
CAUCASIAN,32,108,69
OTHER,17,101,66
OTHER,20,122,66
CAUCASIAN,34,123,84
OTHER,27,101,62
OTHER,32,153,95
OTHER,29,125,94
OTHER,24,116,75
ASIAN,28,120,73
OTHER,18,124,54
CAUCASIAN,30,103,69
OTHER,25,106,67
OTHER,18,103,61
OTHER,15,126,80
BLACK,22,133,74
ASIAN,36,89,60
OTHER,33,129,77
ASIAN,33,129,75
CAUCASIAN,29,118,78
CAUCASIAN,31,109,70
OTHER,27,124,73
BLACK,36,117,70
BLACK,24,110,72
BLACK,35,97,69
BLACK,24,118,81
OTHER,35,128,85
CAUCASIAN,35,111,60
OTHER,26,109,70
Unspecified,31,112,68
CAUCASIAN,30,122,77
OTHER,31,100,57
CAUCASIAN,37,126,72
CAUCASIAN,34,118,64
CAUCASIAN,18,129,71
OTHER,32,127,87
OTHER,29,112,72
OTHER,21,134,71
OTHER,34,113,73
OTHER,18,109,54
BLACK,25,127,83
OTHER,21,92,55
CAUCASIAN,26,132,66
OTHER,34,135,65
BLACK,28,99,64
OTHER,31,111,79
OTHER,18,138,71
CAUCASIAN,32,113,72
OTHER,18,109,69
CAUCASIAN,34,105,66
OTHER,28,103,67
CAUCASIAN,19,96,56
OTHER,36,122,76
OTHER,20,109,74
ASIAN,30,90,60
CAUCASIAN,21,102,64
OTHER,31,121,70
OTHER,23,120,80
OTHER,21,104,63
OTHER,26,111,78
BLACK,20,113,48
ASIAN,30,95,58
CAUCASIAN,35,119,63
OTHER,32,110,70
BLACK,26,102,67
CAUCASIAN,25,109,70
OTHER,32,129,72
BLACK,26,117,74
CAUCASIAN,35,123,75
OTHER,22,104,67
CAUCASIAN,23,111,75
OTHER,27,112,77
OTHER,21,102,58
OTHER,27,104,64
OTHER,24,117,83
OTHER,27,106,67
BLACK,34,127,90
BLACK,31,123,83
Unspecified,37,130,86
CAUCASIAN,33,99,62
CAUCASIAN,34,99,58
OTHER,27,123,84
OTHER,27,102,58
BLACK,26,98,61
BLACK,33,109,45
OTHER,26,114,76
OTHER,21,115,67
BLACK,33,105,65
CAUCASIAN,31,112,70
OTHER,24,105,69
OTHER,23,96,68
OTHER,27,107,68
BLACK,31,122,72
OTHER,21,133,85
OTHER,21,123,78
OTHER,29,131,80
OTHER,28,110,75
CAUCASIAN,27,121,82
ASIAN,27,94,56
BLACK,22,147,87
CAUCASIAN,25,117,69
OTHER,26,100,64
OTHER,27,115,62
CAUCASIAN,24,93,64
OTHER,28,98,59
BLACK,22,92,62
ASIAN,27,114,82
OTHER,24,132,85
CAUCASIAN,22,111,64
BLACK,31,104,67
OTHER,30,106,69
OTHER,32,96,57
OTHER,35,110,91
Unspecified,36,124,68
OTHER,26,116,75
OTHER,26,121,81
CAUCASIAN,32,124,75
CAUCASIAN,25,118,73
OTHER,21,120,79
OTHER,32,101,67
OTHER,19,115,73
OTHER,21,112,63
OTHER,36,100,48
CAUCASIAN,30,122,78
CAUCASIAN,31,105,63
OTHER,36,127,66
OTHER,24,123,65
OTHER,24,101,64
OTHER,28,120,80
OTHER,24,113,70
CAUCASIAN,18,105,69
CAUCASIAN,27,113,74
OTHER,19,98,54
OTHER,32,118,83
ASIAN,28,123,80
OTHER,26,105,34
OTHER,36,121,82
BLACK,29,100,65
OTHER,25,111,75
OTHER,26,108,68
BLACK,40,93,68
OTHER,28,99,64
OTHER,25,97,60
OTHER,24,105,69
OTHER,16,110,70
CAUCASIAN,29,121,74
OTHER,34,119,73
OTHER,34,116,71
OTHER,20,96,63
Unspecified,22,137,81
BLACK,26,104,69
CAUCASIAN,23,97,70
OTHER,25,92,58
ASIAN,37,101,66
OTHER,25,95,61
OTHER,32,117,72
BLACK,32,110,70
OTHER,23,100,66
OTHER,35,123,75
OTHER,29,116,74
OTHER,35,110,71
OTHER,26,101,62
OTHER,34,146,89
Unspecified,28,129,84
OTHER,39,119,78
CAUCASIAN,31,104,71
BLACK,35,151,87
OTHER,24,116,75
BLACK,32,122,82
OTHER,36,140,88
CAUCASIAN,25,99,61
ASIAN,27,101,68
ASIAN,36,113,75
OTHER,32,122,68
OTHER,22,108,70
CAUCASIAN,34,125,76
BLACK,27,110,71
OTHER,26,132,88
OTHER,18,117,75
BLACK,23,108,72
OTHER,27,110,70
BLACK,23,96,65
OTHER,29,122,67
CAUCASIAN,40,119,62
OTHER,31,111,73
OTHER,28,136,110
BLACK,34,130,91
OTHER,32,113,74
ASIAN,36,109,66
CAUCASIAN,36,120,59
BLACK,26,124,83
CAUCASIAN,24,116,73
OTHER,42,114,76
CAUCASIAN,32,119,85
CAUCASIAN,35,120,66
OTHER,35,120,80
OTHER,27,112,67
CAUCASIAN,36,98,62
OTHER,36,103,57
CAUCASIAN,26,136,76
OTHER,27,112,60
CAUCASIAN,30,99,62
OTHER,34,114,64
CAUCASIAN,27,119,79
OTHER,18,91,57
OTHER,34,123,72
OTHER,48,126,82
OTHER,22,123,82
CAUCASIAN,33,115,57
OTHER,29,107,68
CAUCASIAN,32,98,58
BLACK,36,122,83
OTHER,30,109,56
OTHER,31,106,65
BLACK,25,101,49
CAUCASIAN,30,108,68
BLACK,30,105,67
ASIAN,37,109,67
OTHER,25,139,66
CAUCASIAN,29,114,74
CAUCASIAN,27,121,80
OTHER,34,118,69
CAUCASIAN,22,143,71
OTHER,26,120,82
CAUCASIAN,27,104,67
OTHER,17,107,47
CAUCASIAN,29,130,84
OTHER,36,95,62
OTHER,38,116,54
CAUCASIAN,32,119,61
OTHER,31,102,66
CAUCASIAN,24,99,66
BLACK,32,156,81
BLACK,28,111,69
BLACK,28,109,63
OTHER,33,139,75
ASIAN,33,102,62
BLACK,30,120,75
CAUCASIAN,27,112,75
OTHER,36,112,73
ASIAN,31,126,78
BLACK,27,109,59
CAUCASIAN,33,110,73
OTHER,27,100,64
OTHER,25,110,76
BLACK,36,105,68
OTHER,21,107,57
CAUCASIAN,22,120,80
CAUCASIAN,31,107,68
CAUCASIAN,31,110,70
OTHER,24,111,75
OTHER,34,125,89
CAUCASIAN,24,112,77
CAUCASIAN,31,116,74
BLACK,30,130,82
OTHER,25,98,65
Unspecified,32,113,73
OTHER,24,102,63
BLACK,26,125,85
OTHER,30,99,66
CAUCASIAN,28,107,64
OTHER,38,108,73
CAUCASIAN,25,134,71
CAUCASIAN,40,117,81
OTHER,32,104,60
OTHER,23,140,91
OTHER,36,112,59
CAUCASIAN,28,112,73
OTHER,28,110,65
OTHER,30,101,55
CAUCASIAN,25,109,74
OTHER,30,100,62
OTHER,21,112,72
CAUCASIAN,24,97,63
ASIAN,34,99,64
OTHER,28,121,76
BLACK,26,99,76
ASIAN,27,106,71
ASIAN,28,110,80
Unspecified,39,114,79
OTHER,23,119,75
ASIAN,33,127,73
OTHER,22,120,77
OTHER,19,87,55
CAUCASIAN,31,109,70
OTHER,29,114,66
BLACK,31,106,73
CAUCASIAN,27,104,67
CAUCASIAN,27,107,69
CAUCASIAN,26,126,85
OTHER,29,113,70
BLACK,39,91,56
OTHER,18,112,72
OTHER,23,109,71
Unspecified,39,104,65
OTHER,39,116,66
OTHER,24,114,65
CAUCASIAN,33,120,78
OTHER,27,102,67
CAUCASIAN,34,98,62
BLACK,33,112,78
OTHER,31,113,63
OTHER,19,121,78
OTHER,26,135,87
OTHER,24,132,80
OTHER,27,113,75
CAUCASIAN,31,122,74
OTHER,22,106,66
CAUCASIAN,28,117,75
CAUCASIAN,30,130,88
ASIAN,31,127,75
OTHER,22,99,67
CAUCASIAN,43,118,77
OTHER,19,135,77
OTHER,21,116,66
CAUCASIAN,23,113,74
OTHER,37,84,50
OTHER,29,192,170
BLACK,38,119,85
OTHER,32,101,68
OTHER,25,108,72
OTHER,37,119,80
BLACK,32,114,75
OTHER,23,113,61
ASIAN,34,98,67
BLACK,28,100,64
BLACK,35,144,87
OTHER,24,122,70
OTHER,16,135,71
OTHER,30,122,82
CAUCASIAN,33,116,76
CAUCASIAN,34,104,65
OTHER,27,100,62
CAUCASIAN,36,115,69
CAUCASIAN,20,134,83
OTHER,31,112,74
CAUCASIAN,19,144,71
OTHER,25,128,87
Unspecified,16,135,90
BLACK,27,128,77
OTHER,30,96,60
CAUCASIAN,30,107,58
OTHER,29,107,64
OTHER,19,117,79
OTHER,22,100,61
OTHER,20,103,46
OTHER,27,112,68
Unspecified,22,113,54
CAUCASIAN,34,114,69
OTHER,23,107,62
OTHER,37,122,76
BLACK,32,129,79
OTHER,27,104,69
BLACK,29,97,61
BLACK,35,122,79
ASIAN,27,95,60
Unspecified,29,112,75
OTHER,27,106,75
OTHER,27,109,75
CAUCASIAN,38,113,57
CAUCASIAN,28,107,66
OTHER,39,120,71
OTHER,36,102,74
BLACK,26,101,62
OTHER,24,105,73
OTHER,27,94,57
OTHER,39,110,84
BLACK,31,123,80
BLACK,31,102,64
OTHER,38,114,75
CAUCASIAN,19,119,78
OTHER,19,111,69
BLACK,25,102,65
OTHER,24,98,66
BLACK,39,115,78
OTHER,39,114,61
CAUCASIAN,36,95,54
Unspecified,33,120,77
BLACK,14,137,80
OTHER,19,115,64
OTHER,26,126,73
OTHER,35,102,68
OTHER,35,111,72
BLACK,32,117,73
BLACK,39,110,72
OTHER,24,110,73
OTHER,26,105,68
ASIAN,22,141,85
ASIAN,20,115,67
OTHER,22,91,54
OTHER,38,119,81
CAUCASIAN,34,110,73
CAUCASIAN,33,128,104
OTHER,18,103,63
BLACK,28,107,60
CAUCASIAN,22,101,63
CAUCASIAN,14,110,69
Unspecified,27,138,69
OTHER,27,106,71
OTHER,30,126,85
OTHER,26,126,54
Unspecified,28,110,72
OTHER,28,107,65
Unspecified,33,111,76
OTHER,30,99,65
BLACK,27,114,69
OTHER,35,137,84
OTHER,31,108,72
BLACK,30,125,106
CAUCASIAN,33,114,70
BLACK,40,100,66
BLACK,34,113,97
OTHER,36,111,69
OTHER,33,112,64
Unspecified,21,108,67
BLACK,22,122,78
BLACK,26,111,68
OTHER,24,116,75
BLACK,29,101,85
OTHER,23,125,74
BLACK,36,116,71
BLACK,21,112,69
CAUCASIAN,41,133,83
BLACK,32,109,75
Unspecified,26,115,76
ASIAN,33,109,69
BLACK,29,122,81
OTHER,24,101,60
OTHER,24,113,74
BLACK,27,122,80
OTHER,31,116,69
CAUCASIAN,28,136,65
Unspecified,30,123,80
OTHER,21,128,80
BLACK,29,131,85
OTHER,15,123,79
OTHER,30,147,84
BLACK,30,94,60
CAUCASIAN,16,131,77
BLACK,28,108,62
BLACK,37,138,91
BLACK,27,104,70
OTHER,27,113,75
OTHER,34,105,69
